q$M[1]/q$M[3]
1-pf(q$M[1]/q$M[3],3,16)
1-pf(q$M[2]/q$M[3],4,16)
q$P
n1 = 4#
n2 = 2#
n3 = 3#
A = gl(n1,n2)#
B = factor(rep(1:n2,n1))#
d = data.frame(A = A,B = B)#paste(A,B,sep='_'))#
d = d[rep(1:dim(d)[1],each=n3),]#
#
a = rnorm(length(unique(d$A)));names(a) = unique(d$A)#
b = 0*rnorm(length(unique(d$B)));names(b) = unique(d$B)#
d$y = a[d$A] + b[d$B] + rnorm(dim(d)[1])#
#
d2 = tapply(d$y,list(d$B),mean)#
d2_A = sapply(names(d2),function(x) strsplit(x,'_')[[1]][1])#
#
d3 = tapply(d$y,list(d$A),mean)#
d$y2 = d$y - d2[d$B] + d3[d$A]
q=anova(lm(y~A*B,d))
q
1-pf(q$M[1]/q$M[4],3,16)
1-pf(q$M[2]/q$M[4],1,16)
1-pf(q$M[3]/q$M[4],3,16)
anova(lm(y~A*B,d),lm(y~A+B,d))
q$S[1]/a$D[1]
q$S[1]/q$D[1]
q$S[2]/q$D[2]
q=anova(lm(y~A+B:A,d))
q
q$S[1]/q$D[1]
q$S[2]/q$D[2]
1-pf(q$M[1]/q$M[3],3,16)
a=read.delim('~/Documents/Arabidopsis/FIBR/Amity_data/Wilczek_bolting_data.txt')
head(a)
a=read.delim('~/Documents/Arabidopsis/FIBR/Amity_data/Wilczek_bolting_data.txt',sep=',')
head(a)
unique(a$Genotype)
a=read.delim('~/Documents/Arabidopsis/FIBR/Amity_data/full_data/txt_files/CologneFall.txt')
head(a)
unique(a$Ecotype)
write.table(unique(a$Ecotype),file='FIBR_ecotypes',sep=',')
write.table(unique(a$Ecotype),file='FIBR_ecotypes',sep=',',row.names=F,quote=F)
here, I try to code a model of plant physiology and development towards flowering. Based on lab meeting on 9-12
The model is a daily development model that tracks things like daily carbon acquisition, tissue growth, and the expression of key flowering pathway genes
part of the Christophe et al GreenLab model
biomass_per_cycle = function(
Leaf_area,                          # total green area that can participate in photosynthesis = sum(Individual_Leaf_areas)
Stomatal_conductance,               # g_s; may be dependent on time of day, water, or FLC/FT expression
Photosynthesis_efficiency_function, # Function that translates a temperature, light, stomatal_conductace, and water into carbon. Can change with age or with acclimation. Is this Amax?
Temperature,                        # Temperatures during the cycle. Probably hourly
Light_intensity,                    # PAR during the cycle. At the same times as the Temperature measurements.
Water_availability,                 # Some measure of water available for photosynthesis
params                              # Parameters controlling the model
){
Calculations:
A cycle will probably be 1 day, although in the Christophe et al model it is one phyllochron
In that model it is RUE * RIE * S * PAR
I want a model that is sensitive to temperature, light, gs and water
biomass_accumulated = NULL
return(
biomass_accumulated  # biomass gained during this cycle (day)
)
}
here, I try to code a model of plant physiology and development towards flowering. Based on lab meeting on 9-12#
#The model is a daily development model that tracks things like daily carbon acquisition, tissue growth, and the expression of key flowering pathway genes#
#
#part of the Christophe et al GreenLab model#
biomass_per_cycle = function(#
	Leaf_area,                          # total green area that can participate in photosynthesis = sum(Individual_Leaf_areas)#
	Stomatal_conductance,               # g_s; may be dependent on time of day, water, or FLC/FT expression#
	Photosynthesis_efficiency_function, # Function that translates a temperature, light, stomatal_conductace, and water into carbon. Can change with age or with acclimation. Is this Amax?#
	Temperature,                        # Temperatures during the cycle. Probably hourly#
	Light_intensity,                    # PAR during the cycle. At the same times as the Temperature measurements.#
	Water_availability,                 # Some measure of water available for photosynthesis#
	params                              # Parameters controlling the model#
	){#
  # Calculations:#
  	# A cycle will probably be 1 day, although in the Christophe et al model it is one phyllochron#
  	# In that model it is RUE * RIE * S * PAR#
  	# I want a model that is sensitive to temperature, light, gs and water	#
  	biomass_accumulated = NULL#
  	return(#
  		biomass_accumulated  # biomass gained during this cycle (day)#
  	)#
}#
# FT, FLC, VIN3 are monitored in each leaf or meristem separately. FLM, PIF4, are monitored systemically. #
# constraints:#
	# FLC: 		[0,1]#
	# FLM: 		[0,1]#
	# PIF4: 	[0,1]#
	# miR156: 	[0,1]#
	# VIN3: 	[0, VIN3_max]#
	# FT:		[0,Inf]#
	# Sucrose:	[0,S_max] #
	# FLC_chromatin: [0,1]#
#FT transcription/translation model - how much FT is made per unit area of a leaf in one day#
FT_regulation = function(#
	Day_length,			# Number of hours of light in the day#
	Sucrose,			# FT induction is dependent on Sucrose concentration#
	gene_expression,	# expression of repressor and inducor genes: FLC, FLM, PIF4 are environmentally dependent. miR156 defines juvenile period#
	FT_chromatin_state,	# epigenetic state of FT chromatin. Could allow FT-feedback, or long-term regulation#
	params				# Parameters controlling the model#
	){#
#  Calculations#
	# FT accumulates at a low rate for the first few hours of the day, and then at an increasing rate for the rest of the day#
	# Different parts of the FT curve can be affected by different repressors. FLC and miR156 probably affect late-day expression. FLM and PIF4 may affect baseline expression. Many other genes contribute to FLC regulation, but are they environmentally or developmentally regulated in ways not captured by these 4 genes?#
	FLC 	= gene_expression$FLC#
	FLM 	= gene_expression$FLM#
	PIF4 	= gene_expression$PIF4#
	miR156 	= gene_expression$miR156#
	#need to calculate 3 parts of the FT curve. #
		# 1) CSDL: critical short day length. Before this, FT expression at base level. After this, FT increases linearly until sunset#
		# 2) base_rate: FT expression level before CO kicks in#
			# probably depends on FLM and PIF4#
		# 3) afternoon_slope: rate of increase in FT expression with time since CSDL#
	# 1) CSDL	#
	CSDL 	= params$CSDL				#critical short day length. Before this, FT expression at base level. After this, FT increases linearly until sunset#
	# 2) base_rate: Define base_rate with FLM = 0 (min) and PIF4 = 1 (max) to be 1. Increasing FLM lowers the base rate. Decreasing PIF4 also lowers the base rate. #
	base_rate = 1 * FLM_to_FT(FLM,params) * PIF4_to_FT(PIF4,params) 		# this assumes multiplicative effects of the two inputs.#
	# 3) afternoon_slope: slope is increased by more sucrose and decreased by more FLC or more miR156#
	afternoon_slope = params$afternoon_slope * sucrose_to_FT(sucrose,params) * FLC_to_FT(FLC,params) * miR156_to_FT(miR156,params)#
	if(Day_length <= CSDL){#
		return( base_rate * Day_length)#
	}else{#
		return( base_rate * Day_length + (Day_length - CSDL) * afternoon_slope)#
	}#
}
library()
a = 30.7#
b = 5.59#
#
t = seq(0,800,length=100)#
#
sink = function(a,b,t,Tmax = max(t)) {#
	f = ((t+0.5)/Tmax)^(a-1)*(1-(t+0.5)/Tmax)^(b-1)#
	return(f)	#
}#
#
plot(t,sink(a,b,t),type='l',log='y')#
x = rnorm(10000,100,10)#
#
ly = a-b*log(x)#
#
plot(exp(ly),exp(a)*x^-b,log='xy')
x=seq(1,100,length=10000)#
y1 = rnorm(length(x),x,.3*x^2)#
y2 = exp(rnorm(length(x),log(x),0.3))#
#
plot(x,y1)#
points(x,y2,col=2)
x=seq(1,100,length=10000)#
y1 = rnorm(length(x),x,.3*x^2)#
y2 = exp(rnorm(length(x),log(x),log(0.3)))#
#
plot(x,y1)#
points(x,y2,col=2)
x=seq(1,100,length=10000)#
y1 = rnorm(length(x),x,sqrt(.3*x^2))#
y2 = exp(rnorm(length(x),log(x),log(0.3)))#
#
plot(x,y1)#
points(x,y2,col=2)
y2
log(0.3)
x=seq(1,100,length=10000)#
y1 = rnorm(length(x),x,sqrt(.3*x^2))#
y2 = exp(rnorm(length(x),log(x),sqrt(0.3))))#
#
plot(x,y1)#
points(x,y2,col=2)
y2
rnorm(length(x),log(x),sqrt(0.3)))
sqrt(0.3)
log(x)
rnorm(length(x),log(x),sqrt(0.3)))
rnorm(length(x),log(x),sqrt(0.3))
y2 = exp(rnorm(length(x),log(x),sqrt(0.3)))
x=seq(1,100,length=10000)#
y1 = rnorm(length(x),x,sqrt(.3*x^2))#
y2 = exp(rnorm(length(x),log(x),sqrt(0.3)))#
#
plot(x,y1)#
points(x,y2,col=2)
plot(x,y1,log='y')#
points(x,y2,col=2)
x=rep(seq(1,100),each=100)#
y1 = rnorm(length(x),x,sqrt(.3*x^2))#
y2 = exp(rnorm(length(x),log(x),sqrt(0.3)))#
#
plot(x,y1,log='y')#
points(x,y2,col=2)
X = unique(x)#
Y1 = tapply(y1,x,var)#
Y2 = tapply(y2,x,var)#
#
plot(Y1~X)#
points(Y2~X,col=2)
lines(X,0.3*X^2)
X = unique(x)#
Y1 = tapply(y1,x,var)#
Y2 = tapply(y2,x,var)#
#
plot(Y1~X,log='y')#
points(Y2~X,col=2)#
lines(X,0.3*X^2)
whl=read.delim('~/Documents/Urchins/pH_experiment/SPU_analysis/Various_norms/WHLs/Tables/pCO2_results_BP.dat')
none=read.delim('~/Documents/Urchins/pH_experiment/SPU_analysis/Various_norms/TMM_all_none/Tables/pCO2_results_BP.dat')
head(whl)
head(none)
c=merge(whl,none,by.x='Name',by.y='Name')
c
head(c)
tail(c)
plot(B.x,B.y)
plot(c$B.x,c$B.y)
plot(c$R2.x,c$R2.y)
plot(c$R2.x,c$R2.y,log='xy')
plot(c$P.x,c$P.y,log='xy')
abline(0,1)
plot(c$FDR_overall.x,c$FDR_overall.y,log='xy')
abline(0,1)
head(whl,n=10)
head(none,n=10)
plot(c$cat_size.x,c$cat_size.y)
abline(0,1)
none=read.delim('~/Documents/Urchins/pH_experiment/SPU_analysis/Various_norms/TMM_d36_quantile/Tables/pCO2_results_BP.dat')
c=merge(whl,none,by.x='Name',by.y='Name')
plot(c$cat_size.x,c$cat_size.y)
plot(c$FDR_overall.x,c$FDR_overall.y,log='xy')
plot(c$P.x,c$P.y,log='xy')
plot(c$B.x,c$B.y)
summary(c)
whl2 = whl
whl = read.delim(~/Desktop/pH/Tables/pCO2_results_BP.dat')
whl = read.delim('~/Desktop/pH/Tables/pCO2_results_BP.dat')
c=merge(whl,none,by.x='Name',by.y='Name')
plot(c$B.x,c$B.y)
c=merge(whl,whl2,by.x='Name',by.y='Name')
plot(c$B.x,c$B.y)
head(whl,n=10)
head(whl2,n=10)
library(mcmcplots)
?caterplot
rm(list=ls())#
library(R.matlab)#
library(mcmcplots)#
#
path = '/Users/der7/Documents/Urchins/pH_experiment/SPU_analysis/Various_norms_PANTHER_8.1/TMM_d36_none_DGEList'#
rep = 'Factors_with_trt_MF/rep2'#
# rep = 'Factors_Fgxe/rep21'#
load(sprintf('%s/%s/Posterior_workspace_rotated.Robj',path,rep))#
#
load(sprintf('%s/paper_scripts_draft_SPU_workspace.Robj',path,fixed=T))#
load(sprintf('%s/paper_scripts_draft2_workspace.Robj',path,fixed=T))#
#
cat_type='MF'#
#
traits = expr$labels$Type %in% c('Growth_Rate',cat_type)#
traits[expr$labels$Name=='Day_6-9']=T#
trait_names = expr$labels$Name[traits]#
#
o = order(sample_info$Male)#
sample_info = sample_info[o,]#
sample_info$Culture_name = substr(sample_info$Culture,3,8)#
#
Y = t(expr$E[traits,o])#
p = dim(Y)[2]#
#
# option 1. Treat females as fixed effect, males as random#
# X = model.matrix(~Treatment*Female,sample_info)#
X = model.matrix(~Treatment+Female,sample_info)#
X_f = matrix(X[,-1],nc = dim(X)[2]-1)#
X = matrix(X[,1],nc=1)#
Z_1 = model.matrix(~Male-1,sample_info)#
A = diag(1,dim(Z_1)[2])#
#
params = readMat(sprintf('%s/%s/Params.mat',path,rep))[[1]][,,1]#
priors = readMat(sprintf('%s/%s/Priors.mat',path,rep))[[1]][,,1]#
library(coda)#
library(mcmcplots)#
source(sprintf('%s/../../bubble_package.R',path))#
library(RColorBrewer)#
rm('factor_cat_coordinates')#
calc_sig_factors = function(P_Lambda){#
	K = dim(P_Lambda)[1]/p#
	result = matrix(0,2,K)#
#
	for(k in 1:K){#
		P_Lambda_k = P_Lambda[(k-1)*p+1:p,]#
		posterior = mcmc(t(P_Lambda_k))#
		intervals = HPDinterval(posterior,prob = 0.90)#
		sig_traits = sign(intervals[,1]) == sign(intervals[,2])#
		result[1,k] = sum(sig_traits)#
		result[2,k] = mean(apply(P_Lambda_k,2,function(x) sum(x^2)))#
	}#
	return(result)#
}#
sig_factors = calc_sig_factors(P_Lambda)#
sum(sig_factors[1,]>0)#
#
Ks = which(sig_factors[1,]>0)#
#
#for each factor, plot (priors) and posteriors for heritability, treatment, F2 and F3#
nF = length(Ks)#
num_f = dim(X_f)[2]#
save_ymaxs = c()#
nI = dim(P_Lambda)[2]#
post_mat = matrix(0,nI,nF,dimnames=list(NULL,paste('Factor',Ks,sep='_')))#
posteriors = list()#
posteriors$Male_h2     = post_mat#
posteriors$pH          = post_mat#
posteriors$Female_diff = post_mat#
posteriors$Growth_Rate = post_mat#
posteriors$Mortality   = post_mat
bubble plots#
make_bubbles = function(#
	categories,#
	scores,#
	cat_type='BP',#
	main = NULL,#
	color_range = NULL,#
	nbins = 10,	#
	colMap = brewer.pal(n_colors,'PuOr'),#
	border_colors = 'grey70',#
	border_wd = 0.5,#
	text_font = 1,#
	text_cex = 0.2,#
	text_colors = 1,#
	lab_color = 'grey70',#
	coordinates = NULL,#
	circle_scale = 0.2,#
	simrel_path = '/Users/der7/Documents/Urchins/pH_experiment/SPU_analysis/Semantic_Similarity_scores/'#
	# simrel_path = '/Volumes/JunkDNA/druncie/pH_experiment/SPU_analysis/annotation_PANTHER_8.1/Semantic_Similarity_scores/'#
	){#
#
	# recover()#
	simrel = as.matrix(read.delim(paste(simrel_path,cat_type,'_simrel_scores.dat',sep=""),h=T,check.names=F))#
	rownames(simrel)=colnames(simrel)#
#
	categories_fixedNames = sub('/','__',categories,fixed=T)#
	sizes = sapply(categories_fixedNames,function(x) length(catList[[paste(cat_type,x,sep=':')]]))#
	categories = sub('__','/',categories,fixed=T)#
#
	if(is.null(coordinates)){#
		#calculate mds distances#
		d=1-simrel[categories,categories]#
		if(length(categories)>2){#
			coordinates = categories_MDS(d,method='sammon',n_rand_starts=40,k=2,niter=1e3,tol=1e-10,trace=F,ncores=1)#
		} else{#
			coordinates = rbind(c(-d[2,1]/2,0),c(d[2,1]/2,0))#
		}#
	}#
#
	if(is.null(color_range)){#
		max_score = max(abs(scores))#
		bins = seq(-max_score,max_score,length=nbins)#
	}#
	# recover()#
	bins = seq(color_range[1],color_range[2]+1e-10,length=nbins+1)[-1]#
	n_colors = length(bins)#
	circle_colors = colMap[sapply(scores,function(x) min(n_colors,min(which(x<bins))))]#
	color_scale = colMap#
	names(color_scale) = signif(bins,1)#
	# color_scale = color_scale[bins!=0]#
	# lab_color = colMap[c(2,6)][(up_cats)+1]#
#
	# cats_sig_male = cats_male_q<qvalue_cutoff#
	# border_colors = c('grey70','blue')[(cats_sig_male)+1]#
	# border_wd = c(.5,.5)[(cats_sig_male)+1]#
	# text_font = c(1,2)[(cats_sig_male)+1]#
	# text_colors=c(1,'blue')[(cats_sig_male)+1]#
#
	xlim = 4*range(coordinates)#
	ylim = 2*range(coordinates[,2])#
#
	xlim=c(-3.5,3.5)#
	ylim=xlim#
#
	par(mai=c(1,1,1,1))#
	par(bty='n')#
	plot(NA,NA,xlim=xlim,ylim=ylim,xlab='',ylab='',main = main)#
	bubbleplot(categories, sizes, coordinates, color_scale, max_size = (1/(1*pi)* 10000)^(1/2),circle_colors=circle_colors,interactive_labels=F,#
		xlim=xlim,ylim=ylim,circle_scale = circle_scale,line_colors = lab_color, text_colors=text_colors,text_cex=text_cex,#
		border_colors = border_colors, borderwd = border_wd,text_font=text_font,wrap_text=F,main = main,add=T)#
	return(coordinates)#
}
pdf(sprintf('%s/%s/Factor_bubbles_enlarged.pdf',path,rep))#
	max_cats = 40#
	if(!exists('factor_cat_coordinates')) factor_cat_coordinates = list()#
	num_f = dim(X_f)[2];#
	treatment_factors = num_f*(1:nF) - (num_f-1)#
	for(i in 1:nF){#
		print(i)#
		par(mfrow=c(1,1))#
		P_Lambda_i = P_Lambda[(i-1)*p+(1:p),]#
		# P_Lambda_i = t(apply(P_Lambda_i,1,'*',unlist(P_F_b[treatment_factors[i],])))#
		posterior = mcmc(t(P_Lambda_i[-c(1:2),]))#
		colnames(posterior) = trait_names[-c(1:2)]#
		intervals = HPDinterval(posterior,prob = 0.9)#
		means = colMeans(posterior)#
		sig_cats = sign(intervals[,1]) == sign(intervals[,2])#
		# sig_cats = rep(T,length(means))#
#
		categories = colnames(posterior)[sig_cats]#
		scores = means[sig_cats]#
#
		scores = scores * sign(mean(unlist(P_F_b[treatment_factors[i],])))  #flip the loadings if the treatment effect is negative#
#
		if(length(categories) > max_cats){#
			biggest_scores = abs(scores) > quantile(abs(scores),1-max_cats/length(scores))#
			categories = categories[biggest_scores]#
			scores = scores[biggest_scores]#
		}#
		# color_range = round(max(abs(scores)),1)#
		# color_range = c(-color_range,color_range)#
#
		color_range = c(-1,1)#
		n_colors = 10#
		try({#
		factor_cat_coordinates[[as.character(i)]] = make_bubbles(#
			categories = categories,#
			scores = scores,#
			cat_type=cat_type,#
			main = sprintf('Factor %d',i),#
			color_range = color_range,#
			colMap = brewer.pal(n_colors,'PuOr')[n_colors:1],#
			nbins = n_colors,#
			text_cex = .4,#
			circle_scale = 0.15,#
			coordinates = factor_cat_coordinates[[as.character(i)]]#
		)})#
	}#
dev.off()#
save(factor_cat_coordinates,file=sprintf('%s/%s/factor_cat_coordinates.Robj',path,rep))
pdf(sprintf('%s/%s/Treatment_MF_Factor_effects_enlarged.pdf',path,rep))#
cat_type = 'MF'#
print(i)#
par(mfrow=c(1,1))#
posterior = mcmc(pH[,-c(1:2)])#
intervals = HPDinterval(posterior,prob = 0.95)#
means = colMeans(posterior)#
sig_cats = sign(intervals[,1]) == sign(intervals[,2])#
# sig_cats = rep(T,length(means))#
#
categories = colnames(posterior)[sig_cats]#
scores = means[sig_cats]#
#
if(length(categories) > max_cats){#
	biggest_scores = abs(scores) > quantile(abs(scores),1-max_cats/length(scores))#
	categories = categories[biggest_scores]#
	scores = scores[biggest_scores]#
}#
# color_range = round(max(abs(scores)),1)#
# color_range = c(-color_range,color_range)#
#
color_range = c(-1,1)#
n_colors = 10#
try({#
factor_cat_coordinates = make_bubbles(#
	categories = categories,#
	scores = scores,#
	cat_type=cat_type,#
	main = sprintf('Factor %d',i),#
	color_range = color_range,#
	colMap = brewer.pal(n_colors,'PuOr')[n_colors:1],#
	nbins = n_colors,#
	text_cex = .5,#
	circle_scale = 0.15,#
	coordinates = NULL#
)})#
save(factor_cat_coordinates,file=sprintf('%s/%s/Treatment_MF_Factor_coordinates.Robj',path,rep))#
dev.off()
estimate plasticity#
calc_Treatment = function(P_Lambda,P_F_b,X_f,factor){#
	nI = dim(P_Lambda)[2]#
	result = matrix(0,p,nI)#
	for(i in 1:nI){#
		Li = matrix(P_Lambda[,i],nr = p)#
		Fb_i = matrix(P_F_b[,i],nr = dim(X_f)[2])#
		Li_pH = Li %*% Fb_i[factor,]#
		result[,i] = Li_pH#
	}#
	rownames(result) = trait_names#
	return(t(result))#
}#
#
pH = calc_Treatment(P_Lambda,P_F_b,X_f,factor = 1)
pdf(sprintf('%s/%s/Treatment_MF_Factor_effects_enlarged.pdf',path,rep))#
cat_type = 'MF'#
print(i)#
par(mfrow=c(1,1))#
posterior = mcmc(pH[,-c(1:2)])#
intervals = HPDinterval(posterior,prob = 0.95)#
means = colMeans(posterior)#
sig_cats = sign(intervals[,1]) == sign(intervals[,2])#
# sig_cats = rep(T,length(means))#
#
categories = colnames(posterior)[sig_cats]#
scores = means[sig_cats]#
#
if(length(categories) > max_cats){#
	biggest_scores = abs(scores) > quantile(abs(scores),1-max_cats/length(scores))#
	categories = categories[biggest_scores]#
	scores = scores[biggest_scores]#
}#
# color_range = round(max(abs(scores)),1)#
# color_range = c(-color_range,color_range)#
#
color_range = c(-1,1)#
n_colors = 10#
try({#
factor_cat_coordinates = make_bubbles(#
	categories = categories,#
	scores = scores,#
	cat_type=cat_type,#
	main = sprintf('Factor %d',i),#
	color_range = color_range,#
	colMap = brewer.pal(n_colors,'PuOr')[n_colors:1],#
	nbins = n_colors,#
	text_cex = .5,#
	circle_scale = 0.15,#
	coordinates = NULL#
)})#
save(factor_cat_coordinates,file=sprintf('%s/%s/Treatment_MF_Factor_coordinates.Robj',path,rep))#
dev.off()
pdf(sprintf('%s/%s/Treatment_MF_Factor_effects_enlarged.pdf',path,rep))#
cat_type = 'MF'#
print(i)#
par(mfrow=c(1,1))#
posterior = mcmc(pH[,-c(1:2)])#
intervals = HPDinterval(posterior,prob = 0.95)#
means = colMeans(posterior)#
sig_cats = sign(intervals[,1]) == sign(intervals[,2])#
# sig_cats = rep(T,length(means))#
#
categories = colnames(posterior)[sig_cats]#
scores = means[sig_cats]#
#
if(length(categories) > max_cats){#
	biggest_scores = abs(scores) > quantile(abs(scores),1-max_cats/length(scores))#
	categories = categories[biggest_scores]#
	scores = scores[biggest_scores]#
}#
# color_range = round(max(abs(scores)),1)#
# color_range = c(-color_range,color_range)#
#
color_range = c(-1,1)#
n_colors = 10#
try({#
factor_cat_coordinates = make_bubbles(#
	categories = categories,#
	scores = scores,#
	cat_type=cat_type,#
	main = sprintf('Factor %d',i),#
	color_range = color_range,#
	colMap = brewer.pal(n_colors,'PuOr')[n_colors:1],#
	nbins = n_colors,#
	text_cex = .5,#
	circle_scale = 0.1,#
	coordinates = NULL#
)})#
save(factor_cat_coordinates,file=sprintf('%s/%s/Treatment_MF_Factor_coordinates.Robj',path,rep))#
dev.off()
pdf(sprintf('%s/%s/Treatment_MF_Factor_effects_enlarged.pdf',path,rep))#
cat_type = 'MF'#
print(i)#
par(mfrow=c(1,1))#
posterior = mcmc(pH[,-c(1:2)])#
intervals = HPDinterval(posterior,prob = 0.95)#
means = colMeans(posterior)#
sig_cats = sign(intervals[,1]) == sign(intervals[,2])#
# sig_cats = rep(T,length(means))#
#
categories = colnames(posterior)[sig_cats]#
scores = means[sig_cats]#
#
if(length(categories) > max_cats){#
	biggest_scores = abs(scores) > quantile(abs(scores),1-max_cats/length(scores))#
	categories = categories[biggest_scores]#
	scores = scores[biggest_scores]#
}#
# color_range = round(max(abs(scores)),1)#
# color_range = c(-color_range,color_range)#
#
color_range = c(-1,1)#
n_colors = 10#
try({#
factor_cat_coordinates = make_bubbles(#
	categories = categories,#
	scores = scores,#
	cat_type=cat_type,#
	main = sprintf('Factor %d',i),#
	color_range = color_range,#
	colMap = brewer.pal(n_colors,'PuOr')[n_colors:1],#
	nbins = n_colors,#
	text_cex = .3,#
	circle_scale = 0.1,#
	coordinates = NULL#
)})#
save(factor_cat_coordinates,file=sprintf('%s/%s/Treatment_MF_Factor_coordinates.Robj',path,rep))#
dev.off()
pdf(sprintf('%s/%s/Treatment_MF_Factor_effects_enlarged.pdf',path,rep))#
cat_type = 'MF'#
print(i)#
par(mfrow=c(1,1))#
posterior = mcmc(pH[,-c(1:2)])#
intervals = HPDinterval(posterior,prob = 0.95)#
means = colMeans(posterior)#
sig_cats = sign(intervals[,1]) == sign(intervals[,2])#
# sig_cats = rep(T,length(means))#
#
categories = colnames(posterior)[sig_cats]#
scores = means[sig_cats]#
#
if(length(categories) > max_cats){#
	biggest_scores = abs(scores) > quantile(abs(scores),1-max_cats/length(scores))#
	categories = categories[biggest_scores]#
	scores = scores[biggest_scores]#
}#
# color_range = round(max(abs(scores)),1)#
# color_range = c(-color_range,color_range)#
#
color_range = c(-1,1)#
n_colors = 10#
try({#
factor_cat_coordinates = make_bubbles(#
	categories = categories,#
	scores = scores,#
	cat_type=cat_type,#
	main = sprintf('Factor %d',i),#
	color_range = color_range,#
	colMap = brewer.pal(n_colors,'PuOr')[n_colors:1],#
	nbins = n_colors,#
	text_cex = .2,#
	circle_scale = 0.1,#
	coordinates = NULL#
)})#
save(factor_cat_coordinates,file=sprintf('%s/%s/Treatment_MF_Factor_coordinates.Robj',path,rep))#
dev.off()
pdf(sprintf('%s/%s/Treatment_MF_Factor_effects_enlarged.pdf',path,rep))#
cat_type = 'MF'#
print(i)#
par(mfrow=c(1,1))#
posterior = mcmc(pH[,-c(1:2)])#
intervals = HPDinterval(posterior,prob = 0.95)#
means = colMeans(posterior)#
sig_cats = sign(intervals[,1]) == sign(intervals[,2])#
# sig_cats = rep(T,length(means))#
#
categories = colnames(posterior)[sig_cats]#
scores = means[sig_cats]#
#
if(length(categories) > max_cats){#
	biggest_scores = abs(scores) > quantile(abs(scores),1-max_cats/length(scores))#
	categories = categories[biggest_scores]#
	scores = scores[biggest_scores]#
}#
# color_range = round(max(abs(scores)),1)#
# color_range = c(-color_range,color_range)#
#
color_range = c(-1,1)#
n_colors = 10#
try({#
factor_cat_coordinates = make_bubbles(#
	categories = categories,#
	scores = scores,#
	cat_type=cat_type,#
	main = sprintf('Factor %d',i),#
	color_range = color_range,#
	colMap = brewer.pal(n_colors,'PuOr')[n_colors:1],#
	nbins = n_colors,#
	text_cex = .4,#
	circle_scale = 0.1,#
	coordinates = NULL#
)})#
save(factor_cat_coordinates,file=sprintf('%s/%s/Treatment_MF_Factor_coordinates.Robj',path,rep))#
dev.off()
pdf(sprintf('%s/%s/Treatment_MF_Factor_effects_enlarged.pdf',path,rep))#
cat_type = 'MF'#
print(i)#
par(mfrow=c(1,1))#
posterior = mcmc(pH[,-c(1:2)])#
intervals = HPDinterval(posterior,prob = 0.95)#
means = colMeans(posterior)#
sig_cats = sign(intervals[,1]) == sign(intervals[,2])#
# sig_cats = rep(T,length(means))#
#
categories = colnames(posterior)[sig_cats]#
scores = means[sig_cats]#
#
if(length(categories) > max_cats){#
	biggest_scores = abs(scores) > quantile(abs(scores),1-max_cats/length(scores))#
	categories = categories[biggest_scores]#
	scores = scores[biggest_scores]#
}#
# color_range = round(max(abs(scores)),1)#
# color_range = c(-color_range,color_range)#
#
color_range = c(-1,1)#
n_colors = 10#
try({#
factor_cat_coordinates = make_bubbles(#
	categories = categories,#
	scores = scores,#
	cat_type=cat_type,#
	main = sprintf('Factor %d',i),#
	color_range = color_range,#
	colMap = brewer.pal(n_colors,'PuOr')[n_colors:1],#
	nbins = n_colors,#
	text_cex = .4,#
	circle_scale = 0.06,#
	coordinates = NULL#
)})#
save(factor_cat_coordinates,file=sprintf('%s/%s/Treatment_MF_Factor_coordinates.Robj',path,rep))#
dev.off()
pdf(sprintf('%s/%s/Treatment_MF_Factor_effects_enlarged.pdf',path,rep))#
cat_type = 'MF'#
print(i)#
par(mfrow=c(1,1))#
posterior = mcmc(pH[,-c(1:2)])#
intervals = HPDinterval(posterior,prob = 0.95)#
means = colMeans(posterior)#
sig_cats = sign(intervals[,1]) == sign(intervals[,2])#
# sig_cats = rep(T,length(means))#
#
categories = colnames(posterior)[sig_cats]#
scores = means[sig_cats]#
#
if(length(categories) > max_cats){#
	biggest_scores = abs(scores) > quantile(abs(scores),1-max_cats/length(scores))#
	categories = categories[biggest_scores]#
	scores = scores[biggest_scores]#
}#
# color_range = round(max(abs(scores)),1)#
# color_range = c(-color_range,color_range)#
#
color_range = c(-1,1)#
n_colors = 10#
try({#
factor_cat_coordinates = make_bubbles(#
	categories = categories,#
	scores = scores,#
	cat_type=cat_type,#
	main = sprintf('Factor %d',i),#
	color_range = color_range,#
	colMap = brewer.pal(n_colors,'PuOr')[n_colors:1],#
	nbins = n_colors,#
	text_cex = .3,#
	circle_scale = 0.08,#
	coordinates = NULL#
)})#
save(factor_cat_coordinates,file=sprintf('%s/%s/Treatment_MF_Factor_coordinates.Robj',path,rep))#
dev.off()
factor_cat_coordinates = NULL#
pdf(sprintf('%s/%s/Treatment_MF_Factor_effects_enlarged.pdf',path,rep))#
cat_type = 'MF'#
print(i)#
par(mfrow=c(1,1))#
posterior = mcmc(pH[,-c(1:2)])#
intervals = HPDinterval(posterior,prob = 0.95)#
means = colMeans(posterior)#
sig_cats = sign(intervals[,1]) == sign(intervals[,2])#
# sig_cats = rep(T,length(means))#
#
categories = colnames(posterior)[sig_cats]#
scores = means[sig_cats]#
#
if(length(categories) > max_cats){#
	biggest_scores = abs(scores) > quantile(abs(scores),1-max_cats/length(scores))#
	categories = categories[biggest_scores]#
	scores = scores[biggest_scores]#
}#
# color_range = round(max(abs(scores)),1)#
# color_range = c(-color_range,color_range)#
#
color_range = c(-1,1)#
n_colors = 10#
try({#
factor_cat_coordinates = make_bubbles(#
	categories = categories,#
	scores = scores,#
	cat_type=cat_type,#
	main = sprintf('Factor %d',i),#
	color_range = color_range,#
	colMap = brewer.pal(n_colors,'PuOr')[n_colors:1],#
	nbins = n_colors,#
	text_cex = .25,#
	circle_scale = 0.08,#
	coordinates = factor_cat_coordinates#
)})#
save(factor_cat_coordinates,file=sprintf('%s/%s/Treatment_MF_Factor_coordinates.Robj',path,rep))#
dev.off()
path = '/Users/der7/Documents/Urchins/pH_experiment/SPU_analysis/Various_norms_PANTHER_8.1/TMM_d36_none_DGEList'#
load(sprintf('%s/paper_scripts_draft2_workspace.Robj',path,fixed=T))
2^c(.5,2/3,1,1.5,2)
log2(2^c(.5,2/3,1,1.5,2))
log2(-1,-.5,0,.5,1)
log2c((-1,-.5,0,.5,1))
log2(c(-1,-.5,0,.5,1))
log2(c(.5,2/3,1,1.5,2))
path = '/Users/der7/Documents/Urchins/pH_experiment/SPU_analysis/Various_norms_PANTHER_8.1/TMM_d36_none_DGEList'#
load(sprintf('%s/paper_scripts_draft2_workspace.Robj',path,fixed=T))#
results = trt_results[trt_results$Type=='Gene expression',]#
de.genes = results$FDR_t<qvalue_cutoff#
cols=c('grey70','red');cex=0.4#
pdf('/Users/der7/Documents/Talks/CPB_2013/Figures/MA.pdf')#
M=rowMeans(voomR$E[,sample_info$Treatment=='Ctl'])#
A=results$B#
plotGenes = rep(T,sum(!de.genes))#
# plotGenes[abs(A[!de.genes])<.1] = sample(c(T,F),sum(abs(A[!de.genes])<.1),replace=T,prob=c(.1,.9))#
plot(M[!de.genes][plotGenes],A[!de.genes][plotGenes],col=cols[1],xlim=range(M),ylim=range(A),cex=cex,main='Treatment')#
points(M[de.genes],A[de.genes],col=cols[2],cex=cex)#
abline(h=log2(c(.5,2/3,1,1.5,2)))#
dev.off()
mean)sample(which(abs(A)<.25))
mean(sample(which(abs(A)<.25)))
length(sample(which(abs(A)<.25)))
length(sample(which(abs(A)>.25)))
?sample
path = '/Users/der7/Documents/Urchins/pH_experiment/SPU_analysis/Various_norms_PANTHER_8.1/TMM_d36_none_DGEList'#
load(sprintf('%s/paper_scripts_draft2_workspace.Robj',path,fixed=T))#
results = trt_results[trt_results$Type=='Gene expression',]#
de.genes = results$FDR_t<qvalue_cutoff#
cols=c('grey70','red');cex=0.4#
pdf('/Users/der7/Documents/Talks/CPB_2013/Figures/MA.pdf')#
M=rowMeans(voomR$E[,sample_info$Treatment=='Ctl'])#
A=results$B#
plotGenes = rep(T,sum(!de.genes))#
plotGenes = rep(T,dim(M)[1])#
plotGenes[de.genes] = F#
plotGenes[sample(which(abs(A)<.25),prob=.9)] = F#
# plotGenes[abs(A[!de.genes])<.1] = sample(c(T,F),sum(abs(A[!de.genes])<.1),replace=T,prob=c(.1,.9))#
plot(M[plotGenes],A[plotGenes],col=cols[1],xlim=range(M),ylim=range(A),cex=cex,main='Treatment')#
points(M[de.genes],A[de.genes],col=cols[2],cex=cex)#
abline(h=log2(c(.5,2/3,1,1.5,2)))#
dev.off()
dim(M)
length(M)
path = '/Users/der7/Documents/Urchins/pH_experiment/SPU_analysis/Various_norms_PANTHER_8.1/TMM_d36_none_DGEList'#
load(sprintf('%s/paper_scripts_draft2_workspace.Robj',path,fixed=T))#
results = trt_results[trt_results$Type=='Gene expression',]#
de.genes = results$FDR_t<qvalue_cutoff#
cols=c('grey70','red');cex=0.4#
pdf('/Users/der7/Documents/Talks/CPB_2013/Figures/MA.pdf')#
M=rowMeans(voomR$E[,sample_info$Treatment=='Ctl'])#
A=results$B#
plotGenes = rep(T,sum(!de.genes))#
plotGenes = rep(T,length(M))#
plotGenes[de.genes] = F#
plotGenes[sample(which(abs(A)<.25),prob=.9)] = F#
# plotGenes[abs(A[!de.genes])<.1] = sample(c(T,F),sum(abs(A[!de.genes])<.1),replace=T,prob=c(.1,.9))#
plot(M[plotGenes],A[plotGenes],col=cols[1],xlim=range(M),ylim=range(A),cex=cex,main='Treatment')#
points(M[de.genes],A[de.genes],col=cols[2],cex=cex)#
abline(h=log2(c(.5,2/3,1,1.5,2)))#
dev.off()
plotGenes[sample(which(abs(A)<.25),prob=rep(.9,length(M)))] = F
small_effects = which(abs(A))<.25
plotGenes[sample(small_effects,prob=rep(.9,length(small_effects)))] = F
small_effects = which(abs(A)<.25)
plotGenes[sample(small_effects,prob=rep(.9,length(small_effects)))] = F
length(plotGenes)
sum(plotGenes)
hist(A[plotGenes])
sum(abs(A[plotGenes])<.25)
?sample
small_effects = which(abs(A)<.25)
plotGenes[sample(small_effects,length(small_effects)*.9)] = F
sum(abs(A[plotGenes])<.25)
?sample
sample(1:10,9)
length(sample(1:10,9))
summary(plotGenes[small_effects])
plotGenes = rep(T,length(M))
plotGenes[de.genes] = F
small_effects = which(abs(A)<.25)
plotGenes[sample(small_effects,length(small_effects)*.9)] = F
summary(plotGenes[small_effects])
results = trt_results[trt_results$Type=='Gene expression',]#
de.genes = results$FDR_t<qvalue_cutoff#
cols=c('grey70','red');cex=0.4#
pdf('/Users/der7/Documents/Talks/CPB_2013/Figures/MA.pdf')#
M=rowMeans(voomR$E[,sample_info$Treatment=='Ctl'])#
A=results$B#
plotGenes = rep(T,sum(!de.genes))#
plotGenes = rep(T,length(M))#
plotGenes[de.genes] = F#
small_effects = which(abs(A)<.25)#
plotGenes[sample(small_effects,length(small_effects)*.9)] = F#
# plotGenes[abs(A[!de.genes])<.1] = sample(c(T,F),sum(abs(A[!de.genes])<.1),replace=T,prob=c(.1,.9))#
plot(M[plotGenes],A[plotGenes],col=cols[1],xlim=range(M),ylim=range(A),cex=cex,main='Treatment')#
points(M[de.genes],A[de.genes],col=cols[2],cex=cex)#
abline(h=log2(c(.5,2/3,1,1.5,2)))#
dev.off()
results = trt_results[trt_results$Type=='Gene expression',]#
de.genes = results$FDR_t<qvalue_cutoff#
cols=c('grey70','red');cex=0.4#
pdf('/Users/der7/Documents/Talks/CPB_2013/Figures/MA.pdf')#
M=rowMeans(voomR$E[,sample_info$Treatment=='Ctl'])#
A=results$B#
plotGenes = rep(T,sum(!de.genes))#
plotGenes = rep(T,length(M))#
plotGenes[de.genes] = F#
# small_effects = which(abs(A)<.25)#
# plotGenes[sample(small_effects,length(small_effects)*.9)] = F#
plotGenes[sample(1:length(M),prob = max(0,.5-abs(A)))] = F#
# plotGenes[abs(A[!de.genes])<.1] = sample(c(T,F),sum(abs(A[!de.genes])<.1),replace=T,prob=c(.1,.9))#
plot(M[plotGenes],A[plotGenes],col=cols[1],xlim=range(M),ylim=range(A),cex=cex,main='Treatment')#
points(M[de.genes],A[de.genes],col=cols[2],cex=cex)#
abline(h=log2(c(.5,2/3,1,1.5,2)))#
dev.off()
print(sum(plotGenes))
hist(max(0,.5-abs(A))))
hist(max(0,.5-abs(A)))
summary(abs(A))
summary(.5-abs(A))
results = trt_results[trt_results$Type=='Gene expression',]#
de.genes = results$FDR_t<qvalue_cutoff#
cols=c('grey70','red');cex=0.4#
pdf('/Users/der7/Documents/Talks/CPB_2013/Figures/MA.pdf')#
M=rowMeans(voomR$E[,sample_info$Treatment=='Ctl'])#
A=results$B#
plotGenes = rep(T,sum(!de.genes))#
plotGenes = rep(T,length(M))#
plotGenes[de.genes] = F#
# small_effects = which(abs(A)<.25)#
# plotGenes[sample(small_effects,length(small_effects)*.9)] = F#
plotGenes[sample(1:length(M),prob = pmax(0,.5-abs(A)))] = F#
# plotGenes[abs(A[!de.genes])<.1] = sample(c(T,F),sum(abs(A[!de.genes])<.1),replace=T,prob=c(.1,.9))#
plot(M[plotGenes],A[plotGenes],col=cols[1],xlim=range(M),ylim=range(A),cex=cex,main='Treatment')#
points(M[de.genes],A[de.genes],col=cols[2],cex=cex)#
abline(h=log2(c(.5,2/3,1,1.5,2)))#
dev.off()#
print(sum(plotGenes))
?sample
rmultinom(10,10,1:10)
apply(rmultinom(10,10,1:10),unique(rmultinom(10,10,1:10)))
apply(rmultinom(10,10,1:10),unique)
apply(rmultinom(10,10,1:10),1,unique)
apply(rmultinom(10,10,10:``),1,unique)
apply(rmultinom(10,10,10:1),1,unique)
results = trt_results[trt_results$Type=='Gene expression',]#
de.genes = results$FDR_t<qvalue_cutoff#
cols=c('grey70','red');cex=0.4#
pdf('/Users/der7/Documents/Talks/CPB_2013/Figures/MA.pdf')#
M=rowMeans(voomR$E[,sample_info$Treatment=='Ctl'])#
A=results$B#
plotGenes = rep(T,sum(!de.genes))#
plotGenes = rep(T,length(M))#
plotGenes[de.genes] = F#
small_effects = which(abs(A)<.1)#
plotGenes[sample(small_effects,length(small_effects)*.5)] = F#
# plotGenes[sample(1:length(M),prob = pmax(0,.5-abs(A)))] = F#
# plotGenes[abs(A[!de.genes])<.1] = sample(c(T,F),sum(abs(A[!de.genes])<.1),replace=T,prob=c(.1,.9))#
plot(M[plotGenes],A[plotGenes],col=cols[1],xlim=range(M),ylim=range(A),cex=cex,main='Treatment')#
points(M[de.genes],A[de.genes],col=cols[2],cex=cex)#
abline(h=log2(c(.5,2/3,1,1.5,2)))#
dev.off()#
print(sum(plotGenes))
results = trt_results[trt_results$Type=='Gene expression',]#
de.genes = results$FDR_t<qvalue_cutoff#
cols=c('grey70','red');cex=0.4#
pdf('/Users/der7/Documents/Talks/CPB_2013/Figures/MA.pdf')#
M=rowMeans(voomR$E[,sample_info$Treatment=='Ctl'])#
A=results$B#
plotGenes = rep(T,sum(!de.genes))#
plotGenes = rep(T,length(M))#
plotGenes[de.genes] = F#
# small_effects = which(abs(A)<.1)#
# plotGenes[sample(small_effects,length(small_effects)*.5)] = F#
# plotGenes[sample(1:length(M),prob = pmax(0,.5-abs(A)))] = F#
# plotGenes[abs(A[!de.genes])<.1] = sample(c(T,F),sum(abs(A[!de.genes])<.1),replace=T,prob=c(.1,.9))#
plotGenes#
plot(M[plotGenes],A[plotGenes],col=cols[1],xlim=range(M),ylim=range(A),cex=cex,main='Treatment')#
points(M[de.genes],A[de.genes],col=cols[2],cex=cex)#
abline(h=log2(c(.5,2/3,1,1.5,2)))#
dev.off()#
print(sum(plotGenes))
results = trt_results[trt_results$Type=='Gene expression',]#
de.genes = results$FDR_t<qvalue_cutoff#
cols=c('grey70','red');cex=0.4#
pdf('/Users/der7/Documents/Talks/CPB_2013/Figures/MA.pdf')#
M=rowMeans(voomR$E[,sample_info$Treatment=='Ctl'])#
A=results$B#
plotGenes = rep(T,sum(!de.genes))#
plotGenes = rep(T,length(M))#
plotGenes[de.genes] = F#
# small_effects = which(abs(A)<.1)#
# plotGenes[sample(small_effects,length(small_effects)*.5)] = F#
# plotGenes[sample(1:length(M),prob = pmax(0,.5-abs(A)))] = F#
# plotGenes[abs(A[!de.genes])<.1] = sample(c(T,F),sum(abs(A[!de.genes])<.1),replace=T,prob=c(.1,.9))#
# plotGenes#
plot(M[plotGenes],A[plotGenes],col=cols[1],xlim=range(M),ylim=range(A),cex=cex,main='Treatment')#
points(M[de.genes],A[de.genes],col=cols[2],cex=cex)#
abline(h=log2(c(.5,2/3,1,1.5,2)))#
plotGenes[M > 0 & M < 5 & abs(A)<.1] = F#
plot(M[plotGenes],A[plotGenes],col=cols[1],xlim=range(M),ylim=range(A),cex=cex,main='Treatment')#
points(M[de.genes],A[de.genes],col=cols[2],cex=cex)#
abline(h=log2(c(.5,2/3,1,1.5,2)))#
dev.off()#
print(sum(plotGenes))
ls()
head(urchinCats)
sum(urchinCats$Category == 'MF:G-protein coupled receptor activity')
results = trt_results[trt_results$Type=='Gene expression',]#
de.genes = results$FDR_t<qvalue_cutoff#
cols=c('grey70','red');cex=0.4#
pdf('/Users/der7/Documents/Talks/CPB_2013/Figures/MA.pdf')#
M=rowMeans(voomR$E[,sample_info$Treatment=='Ctl'])#
A=results$B#
plotGenes = rep(T,sum(!de.genes))#
plotGenes = rep(T,length(M))#
plotGenes[de.genes] = F#
# small_effects = which(abs(A)<.1)#
# plotGenes[sample(small_effects,length(small_effects)*.5)] = F#
# plotGenes[sample(1:length(M),prob = pmax(0,.5-abs(A)))] = F#
# plotGenes[abs(A[!de.genes])<.1] = sample(c(T,F),sum(abs(A[!de.genes])<.1),replace=T,prob=c(.1,.9))#
# plotGenes#
plot(M[plotGenes],A[plotGenes],col=cols[1],xlim=range(M),ylim=range(A),cex=cex,main='Treatment')#
points(M[de.genes],A[de.genes],col=cols[2],cex=cex)#
abline(h=log2(c(.5,2/3,1,1.5,2)))#
plotGenes[M > 0 & M < 5 & abs(A)<.1] = F#
plot(M[plotGenes],A[plotGenes],col=cols[1],xlim=range(M),ylim=range(A),cex=cex,main='Treatment')#
points(M[de.genes],A[de.genes],col=cols[2],cex=cex)#
abline(h=log2(c(.5,2/3,1,1.5,2)))#
plotGenes = match(urchinCats$V1[urchinCats$Category == 'MF:G-protein coupled receptor activity']) = T#
plot(M[plotGenes],A[plotGenes],col=cols[1],xlim=range(M),ylim=range(A),cex=cex,main='Treatment',col='blue')#
abline(h=log2(c(.5,2)))#
#
dev.off()#
print(sum(plotGenes))
head(trt_results)
head(results)
plotGenes = match(urchinCats$V1[urchinCats$Category == 'MF:G-protein coupled receptor activity'],results$Name) = T#
plot(M[plotGenes],A[plotGenes],col=cols[1],xlim=range(M),ylim=range(A),cex=cex,main='Treatment',col='blue')#
abline(h=log2(c(.5,2)))
plotGenes[match(urchinCats$V1[urchinCats$Category == 'MF:G-protein coupled receptor activity'],results$Name)] = T
plot(M[plotGenes],A[plotGenes],col=cols[1],xlim=range(M),ylim=range(A),cex=cex,main='Treatment',col='blue')
abline(h=log2(c(.5,2)))
plot(M[plotGenes],A[plotGenes],xlim=range(M),ylim=range(A),cex=cex,main='Treatment',col='blue')
plotGenes = match(urchinCats$V1[urchinCats$Category == 'MF:G-protein coupled receptor activity'],results$Name)
plot(M[plotGenes],A[plotGenes],col=cols[1],xlim=range(M),ylim=range(A),cex=cex,main='Treatment',col='blue')
abline(h=log2(c(.5,2)))
plot(M[plotGenes],A[plotGenes],xlim=range(M),ylim=range(A),cex=cex,main='Treatment',col='blue')
abline(h=log2(c(.5,2)))
abline(h=0)
a=results$Name[match(urchinCats$V1[urchinCats$Category == 'MF:cytokine activity'],results$Name)]
a
urchinCats[urchinCats$VA=='SPU_000997',]
urchinCats[urchinCats$V1=='SPU_000997',]
results = trt_results[trt_results$Type=='Gene expression',]#
de.genes = results$FDR_t<qvalue_cutoff#
cols=c('grey70','red');cex=0.4#
pdf('/Users/der7/Documents/Talks/CPB_2013/Figures/MA.pdf')#
M=rowMeans(voomR$E[,sample_info$Treatment=='Ctl'])#
A=results$B#
plotGenes = rep(T,sum(!de.genes))#
plotGenes = rep(T,length(M))#
plotGenes[de.genes] = F#
# small_effects = which(abs(A)<.1)#
# plotGenes[sample(small_effects,length(small_effects)*.5)] = F#
# plotGenes[sample(1:length(M),prob = pmax(0,.5-abs(A)))] = F#
# plotGenes[abs(A[!de.genes])<.1] = sample(c(T,F),sum(abs(A[!de.genes])<.1),replace=T,prob=c(.1,.9))#
# plotGenes#
plot(M[plotGenes],A[plotGenes],col=cols[1],xlim=range(M),ylim=range(A),cex=cex,main='Treatment')#
points(M[de.genes],A[de.genes],col=cols[2],cex=cex)#
abline(h=log2(c(.5,2/3,1,1.5,2)))#
plotGenes[M > 0 & M < 5 & abs(A)<.1] = F#
plot(M[plotGenes],A[plotGenes],col=cols[1],xlim=range(M),ylim=range(A),cex=cex,main='Treatment')#
points(M[de.genes],A[de.genes],col=cols[2],cex=cex)#
abline(h=log2(c(.5,2/3,1,1.5,2)))#
#
catName = 'MF:G-protein coupled receptor activity'#
plotGenes = match(urchinCats$V1[urchinCats$Category == catName],results$Name)#
plot(M[plotGenes],A[plotGenes],xlim=range(M),ylim=range(A),cex=cex,main=catName,col='blue')#
abline(h=log2(c(.5,2)))#
#
catName = 'MF:receptor activity'#
plotGenes = match(urchinCats$V1[urchinCats$Category == catName],results$Name)#
plot(M[plotGenes],A[plotGenes],xlim=range(M),ylim=range(A),cex=cex,main=catName,col='blue')#
abline(h=log2(c(.5,2)))#
#
catName = 'MF:cytokine activity'#
plotGenes = match(urchinCats$V1[urchinCats$Category == catName],results$Name)#
plot(M[plotGenes],A[plotGenes],xlim=range(M),ylim=range(A),cex=cex,main=catName,col='blue')#
abline(h=log2(c(.5,2)))#
#
catName = 'MF:single-stranded DNA binding'#
plotGenes = match(urchinCats$V1[urchinCats$Category == catName],results$Name)#
plot(M[plotGenes],A[plotGenes],xlim=range(M),ylim=range(A),cex=cex,main=catName,col='green')#
abline(h=log2(c(.5,2)))#
catName = 'MF:enzyme activator activity'#
plotGenes = match(urchinCats$V1[urchinCats$Category == catName],results$Name)#
plot(M[plotGenes],A[plotGenes],xlim=range(M),ylim=range(A),cex=cex,main=catName,col='red')#
abline(h=log2(c(.5,2)))#
dev.off()#
print(sum(plotGenes))
results = trt_results[trt_results$Type=='Gene expression',]#
de.genes = results$FDR_t<qvalue_cutoff#
cols=c('grey70','red');cex=0.4#
pdf('/Users/der7/Documents/Talks/CPB_2013/Figures/MA.pdf')#
M=rowMeans(voomR$E[,sample_info$Treatment=='Ctl'])#
A=results$B#
plotGenes = rep(T,sum(!de.genes))#
plotGenes = rep(T,length(M))#
# plotGenes[de.genes] = F#
# small_effects = which(abs(A)<.1)#
# plotGenes[sample(small_effects,length(small_effects)*.5)] = F#
# plotGenes[sample(1:length(M),prob = pmax(0,.5-abs(A)))] = F#
# plotGenes[abs(A[!de.genes])<.1] = sample(c(T,F),sum(abs(A[!de.genes])<.1),replace=T,prob=c(.1,.9))#
# plotGenes#
plot(M[plotGenes],A[plotGenes],col=cols[1],xlim=range(M),ylim=range(A),cex=cex,main='Treatment')#
points(M[de.genes],A[de.genes],col=cols[2],cex=cex)#
abline(h=log2(c(.5,2/3,1,1.5,2)))#
plotGenes[M > 0 & M < 5 & abs(A)<.1] = F#
plot(M[plotGenes],A[plotGenes],col=cols[1],xlim=range(M),ylim=range(A),cex=cex,main='Treatment')#
points(M[de.genes],A[de.genes],col=cols[2],cex=cex)#
abline(h=log2(c(.5,2/3,1,1.5,2)))#
#
catName = 'MF:G-protein coupled receptor activity'#
plotGenes = match(urchinCats$V1[urchinCats$Category == catName],results$Name)#
plot(M[plotGenes],A[plotGenes],xlim=range(M),ylim=range(A),cex=cex,main=catName,col='blue')#
abline(h=log2(c(.5,2)))#
#
catName = 'MF:receptor activity'#
plotGenes = match(urchinCats$V1[urchinCats$Category == catName],results$Name)#
plot(M[plotGenes],A[plotGenes],xlim=range(M),ylim=range(A),cex=cex,main=catName,col='blue')#
abline(h=log2(c(.5,2)))#
#
catName = 'MF:cytokine activity'#
plotGenes = match(urchinCats$V1[urchinCats$Category == catName],results$Name)#
plot(M[plotGenes],A[plotGenes],xlim=range(M),ylim=range(A),cex=cex,main=catName,col='blue')#
abline(h=log2(c(.5,2)))#
#
catName = 'MF:single-stranded DNA binding'#
plotGenes = match(urchinCats$V1[urchinCats$Category == catName],results$Name)#
plot(M[plotGenes],A[plotGenes],xlim=range(M),ylim=range(A),cex=cex,main=catName,col='green')#
abline(h=log2(c(.5,2)))#
catName = 'MF:enzyme activator activity'#
plotGenes = match(urchinCats$V1[urchinCats$Category == catName],results$Name)#
plot(M[plotGenes],A[plotGenes],xlim=range(M),ylim=range(A),cex=cex,main=catName,col='red')#
abline(h=log2(c(.5,2)))#
dev.off()#
print(sum(plotGenes))
catName = 'MF:cytokine activity'
plotGenes = match(urchinCats$V1[urchinCats$Category == catName],results$Name)
plotGenes
sum(!is.na(plotGenes))
catName = 'MF:single-stranded DNA binding'
plotGenes = match(urchinCats$V1[urchinCats$Category == catName],results$Name)
sum(!is.na(plotGenes))
??gsea
??GSEA
mean(rgamma(10000,1,6000))
mean(1/rgamma(10000,1,6000))
mean(1/rgamma(10000,12,6000))
mean(1/rgamma(10000,2,6000))
hist(sqrt(1/rgamma(10000,shape=2,scale=10))*20)
hist(sqrt(1/rgamma(10000,shape=10,scale=10))*20)
hist(sqrt(1/rgamma(10000,shape=5,scale=10))*20)
hist(sqrt(1/rgamma(10000,shape=7,scale=10))*20)
?cor
?ar
x = rnorm(1000)
var(x)
cov(x,x)
20000*20001/2
signif(20000*20001/2,3)
signif(x*(x+1)/2,3)
x=25000
signif(x*(x+1)/2,3)
x=20000
signif(x*(x+1)/2,3)
X=matrix(0,nr=x,nc=x)
dim(X)
length(X)
length(X)/2+x
signif(length(X)/2+x,3)
DO NOT RUN. Re-does all the randomizations.#
#
#outfiles#
# FT_randomization = 'Randomized_genotypes_FT.csv'#
GE_randomization = 'Randomized_genotypes_GE.csv'#
# FT_plots = 'Genotype_map_FT.pdf'#
GE_plots = 'Genotype_map_GE.pdf'
load genotypes#
library(gdata)#
genotypes = read.xls('Final genotype list.xlsx',sheet=3,h=T,stringsAsFactors=F)[1:25,1]#
#draw tray#
draw_tray = function(rows,cols,text=NULL,colors = NULL,main=NULL,cex.text = 0.8){#
	nr = length(rows)#
	nc = length(cols)#
	if(is.null(colors)){#
		colors = matrix(0,nr=nr,ncol=nc)#
	}#
	if(is.null(text)){#
		text = matrix('',nr=nr,ncol=nc)#
	}#
	width = height = 1/max(nr+1,nc+1)#
	plot(NA,NA,xlim=c(0,1),ylim=c(0,1),main=main,xaxt='n',yaxt='n',xlab='',ylab='')#
	for(i in 1:nr){#
		for(j in 1:nc){#
			rect((j)*width,1-(i+1)*height,(j+1)*width,1-(i)*height,col=colors[i,j])#
			text((j+0.5)*width,1-(i+0.5)*height,labels=text[i,j],adj=c(0.5,0.5),cex=cex.text)#
		}#
	}#
	for(i in 1:nr){#
		j = 0#
		text((j+0.5)*width,1-(i+0.5)*height,labels=rows[i],adj=c(0.5,0.5))#
	}#
	for(j in 1:nc){#
		i = 0#
		text((j+0.5)*width,1-(i+0.5)*height,labels=cols[j],adj=c(0.5,0.5))#
	}#
}
groups of 4. #
groups = list(#
		paste(c('Col','ColFRI'),'T1_1',sep='::'),#
		paste(c('Col','ColFRI'),'T1_2',sep='::'),#
		paste(c('Col','ColFRI'),'T1_3',sep='::'),#
		paste(c('Col','ColFRI'),'T1_4',sep='::'),#
		paste(c('Col','ColFRI'),'T1_6',sep='::'),#
		c('Col::T1_5','ColFRI::T2_6'),#
		paste('ColFRI',c('T2_1','T3_6'),sep='::'),#
		paste('ColFRI',c('T2_2','T3_1'),sep='::'),#
		paste('ColFRI',c('T2_3','T3_2'),sep='::'),#
		paste('ColFRI',c('T2_4','T3_3'),sep='::'),#
		paste('ColFRI',c('T2_5','T3_4'),sep='::'),#
		paste('ColFRI',c('T1_5','T3_5'),sep='::')#
		)#
#
Row = LETTERS[1:4]#
Col = 1:12#
#
tray_num = 12#
data = data.frame(Treatment = '',Block = '', Tray = '', Row = '', Col = '', Sample = '',stringsAsFactors=F)[-1,]#
for(trt in Treatments){#
	for(blk in Blocks){#
		tray_num = tray_num+1#
		sort_groups = groups[sample(1:length(groups))]#
		group_num = 0#
		for(i in 1:2){#
			for(j in 1:6){#
				group_num = group_num + 1#
				data = rbind(data,data.frame(#
					Treatment = trt,#
					Block = blk,#
					Tray = tray_num,#
					Row = Row[2*i-c(1,1,0,0)],#
					Col = Col[2*j-c(1,0,1,0)],#
					Sample = sample(rep(sort_groups[[group_num]],each=2)),#
					stringsAsFactors=F))#
			}#
		}#
	}#
}#
data$TrayID = paste(data$Tray,"_",data$Treatment,data$Block,sep="")#
pdf(GE_plots,height = 6,width=10)#
par(bty='n')#
par(mar=c(0,0,2,0))#
for(tray in unique(data$TrayID)){#
	ind = data$TrayID == tray#
	X = matrix('',length(Row),length(Col))#
	for(i in 1:dim(X)[1]){#
		for(j in 1:dim(X)[2]){#
			X[i,j] = data$Sample[ind][data$Row[ind] == Row[i] & data$Col[ind]==Col[j]]#
		}#
	}#
	Y = array(0,dim=dim(X))#
	Y[sapply(X,function(x) strsplit(x,'::',fixed=t)[[1]][1] == 'Col')] = 'grey70'#
	draw_tray(Row,Col,text = X,main = tray,cex.text = .6,colors=Y)#
}#
dev.off()#
write.table(data,file = GE_randomization,sep=',',row.names=F,col.names=T)
Treatments = c('Con', 'Var')
Blocks = LETTERS[1:2]  #Two blocks per treatment
trays_per_block = 3 #3 trays per block
now for gene expression tray:#
#
#groups of 4. #
groups = list(#
		paste(c('Col','ColFRI'),'T1_1',sep='::'),#
		paste(c('Col','ColFRI'),'T1_2',sep='::'),#
		paste(c('Col','ColFRI'),'T1_3',sep='::'),#
		paste(c('Col','ColFRI'),'T1_4',sep='::'),#
		paste(c('Col','ColFRI'),'T1_6',sep='::'),#
		c('Col::T1_5','ColFRI::T2_6'),#
		paste('ColFRI',c('T2_1','T3_6'),sep='::'),#
		paste('ColFRI',c('T2_2','T3_1'),sep='::'),#
		paste('ColFRI',c('T2_3','T3_2'),sep='::'),#
		paste('ColFRI',c('T2_4','T3_3'),sep='::'),#
		paste('ColFRI',c('T2_5','T3_4'),sep='::'),#
		paste('ColFRI',c('T1_5','T3_5'),sep='::')#
		)#
#
Row = LETTERS[1:4]#
Col = 1:12#
#
tray_num = 12#
data = data.frame(Treatment = '',Block = '', Tray = '', Row = '', Col = '', Sample = '',stringsAsFactors=F)[-1,]#
for(trt in Treatments){#
	for(blk in Blocks){#
		tray_num = tray_num+1#
		sort_groups = groups[sample(1:length(groups))]#
		group_num = 0#
		for(i in 1:2){#
			for(j in 1:6){#
				group_num = group_num + 1#
				data = rbind(data,data.frame(#
					Treatment = trt,#
					Block = blk,#
					Tray = tray_num,#
					Row = Row[2*i-c(1,1,0,0)],#
					Col = Col[2*j-c(1,0,1,0)],#
					Sample = sample(rep(sort_groups[[group_num]],each=2)),#
					stringsAsFactors=F))#
			}#
		}#
	}#
}#
data$TrayID = paste(data$Tray,"_",data$Treatment,data$Block,sep="")#
pdf(GE_plots,height = 6,width=10)#
par(bty='n')#
par(mar=c(0,0,2,0))#
for(tray in unique(data$TrayID)){#
	ind = data$TrayID == tray#
	X = matrix('',length(Row),length(Col))#
	for(i in 1:dim(X)[1]){#
		for(j in 1:dim(X)[2]){#
			X[i,j] = data$Sample[ind][data$Row[ind] == Row[i] & data$Col[ind]==Col[j]]#
		}#
	}#
	Y = array(0,dim=dim(X))#
	Y[sapply(X,function(x) strsplit(x,'::',fixed=t)[[1]][1] == 'Col')] = 'grey70'#
	draw_tray(Row,Col,text = X,main = tray,cex.text = .6,colors=Y)#
}#
dev.off()#
write.table(data,file = GE_randomization,sep=',',row.names=F,col.names=T)
GE_plots
groups of 4. #
groups = list(#
		paste(c('Col','ColFRI'),'T1_1',sep='::'),#
		paste(c('Col','ColFRI'),'T1_2',sep='::'),#
		paste(c('Col','ColFRI'),'T1_3',sep='::'),#
		paste(c('Col','ColFRI'),'T1_4',sep='::'),#
		paste(c('Col','ColFRI'),'T1_6',sep='::'),#
		c('Col::T1_5','ColFRI::T2_6'),#
		paste('ColFRI',c('T2_1','T3_6'),sep='::'),#
		paste('ColFRI',c('T2_2','T3_1'),sep='::'),#
		paste('ColFRI',c('T2_3','T3_2'),sep='::'),#
		paste('ColFRI',c('T2_4','T3_3'),sep='::'),#
		paste('ColFRI',c('T2_5','T3_4'),sep='::'),#
		paste('ColFRI',c('T1_5','T3_5'),sep='::')#
		)
groups
Row = LETTERS[1:4]#
Col = 1:12#
#
tray_num = 12#
data = data.frame(Treatment = '',Block = '', Tray = '', Row = '', Col = '', Sample = '',stringsAsFactors=F)[-1,]#
for(trt in Treatments){#
	for(blk in Blocks){#
		tray_num = tray_num+1#
		sort_groups = groups[sample(1:length(groups))]#
		group_num = 0#
		for(i in 1:2){#
			for(j in 1:6){#
				group_num = group_num + 1#
				data = rbind(data,data.frame(#
					Treatment = trt,#
					Block = blk,#
					Tray = tray_num,#
					Row = Row[2*i-c(1,1,0,0)],#
					Col = Col[2*j-c(1,0,1,0)],#
					Sample = sample(rep(sort_groups[[group_num]],each=2)),#
					stringsAsFactors=F))#
			}#
		}#
	}#
}#
data$TrayID = paste(data$Tray,"_",data$Treatment,data$Block,sep="")#
pdf(GE_plots,height = 6,width=10)#
par(bty='n')#
par(mar=c(0,0,2,0))#
for(tray in unique(data$TrayID)){#
	ind = data$TrayID == tray#
	X = matrix('',length(Row),length(Col))#
	for(i in 1:dim(X)[1]){#
		for(j in 1:dim(X)[2]){#
			X[i,j] = data$Sample[ind][data$Row[ind] == Row[i] & data$Col[ind]==Col[j]]#
		}#
	}#
	Y = array(0,dim=dim(X))#
	Y[sapply(X,function(x) strsplit(x,'::',fixed=t)[[1]][1] == 'Col')] = 'grey70'#
	draw_tray(Row,Col,text = X,main = tray,cex.text = .6,colors=Y)#
}#
dev.off()#
write.table(data,file = GE_randomization,sep=',',row.names=F,col.names=T)
setwd("/Users/der7/Dropbox/DER_projects/Variable_vs_Constant/Experiment")
Row = LETTERS[1:4]#
Col = 1:12#
#
tray_num = 12#
data = data.frame(Treatment = '',Block = '', Tray = '', Row = '', Col = '', Sample = '',stringsAsFactors=F)[-1,]#
for(trt in Treatments){#
	for(blk in Blocks){#
		tray_num = tray_num+1#
		sort_groups = groups[sample(1:length(groups))]#
		group_num = 0#
		for(i in 1:2){#
			for(j in 1:6){#
				group_num = group_num + 1#
				data = rbind(data,data.frame(#
					Treatment = trt,#
					Block = blk,#
					Tray = tray_num,#
					Row = Row[2*i-c(1,1,0,0)],#
					Col = Col[2*j-c(1,0,1,0)],#
					Sample = sample(rep(sort_groups[[group_num]],each=2)),#
					stringsAsFactors=F))#
			}#
		}#
	}#
}#
data$TrayID = paste(data$Tray,"_",data$Treatment,data$Block,sep="")#
pdf(GE_plots,height = 6,width=10)#
par(bty='n')#
par(mar=c(0,0,2,0))#
for(tray in unique(data$TrayID)){#
	ind = data$TrayID == tray#
	X = matrix('',length(Row),length(Col))#
	for(i in 1:dim(X)[1]){#
		for(j in 1:dim(X)[2]){#
			X[i,j] = data$Sample[ind][data$Row[ind] == Row[i] & data$Col[ind]==Col[j]]#
		}#
	}#
	Y = array(0,dim=dim(X))#
	Y[sapply(X,function(x) strsplit(x,'::',fixed=t)[[1]][1] == 'Col')] = 'grey70'#
	draw_tray(Row,Col,text = X,main = tray,cex.text = .6,colors=Y)#
}#
dev.off()#
write.table(data,file = GE_randomization,sep=',',row.names=F,col.names=T)
