"Treatment","Block","Tray","Row","Col","Genotype","TrayID"
"Con","A",1,"A",1,"pif4-101","1_ConA"
"Con","A",1,"A",2,"maf3","1_ConA"
"Con","A",1,"A",3,"hua2-3 FRI","1_ConA"
"Con","A",1,"A",4,"KCK_872","1_ConA"
"Con","A",1,"A",5,"flmFRI","1_ConA"
"Con","A",1,"A",6,"frl1-3 FRI","1_ConA"
"Con","A",1,"A",7,"flmFRI","1_ConA"
"Con","A",1,"A",8,"Ler","1_ConA"
"Con","A",1,"A",9,"CCC_903","1_ConA"
"Con","A",1,"A",10,"CKC_978","1_ConA"
"Con","A",1,"B",1,"phyB-1","1_ConA"
"Con","A",1,"B",2,"ColFRI","1_ConA"
"Con","A",1,"B",3,"CKK_986","1_ConA"
"Con","A",1,"B",4,"vin3-4 FRI","1_ConA"
"Con","A",1,"B",5,"KKK_885","1_ConA"
"Con","A",1,"B",6,"phyB-1","1_ConA"
"Con","A",1,"B",7,"maf2FRI","1_ConA"
"Con","A",1,"B",8,"Kas-1","1_ConA"
"Con","A",1,"B",9,"maf2","1_ConA"
"Con","A",1,"B",10,"Ts-5","1_ConA"
"Con","A",1,"C",1,"maf2","1_ConA"
"Con","A",1,"C",2,"Ts-5","1_ConA"
"Con","A",1,"C",3,"KCK_872","1_ConA"
"Con","A",1,"C",4,"maf3","1_ConA"
"Con","A",1,"C",5,"flm","1_ConA"
"Con","A",1,"C",6,"Sf-2","1_ConA"
"Con","A",1,"C",7,"CKK_986","1_ConA"
"Con","A",1,"C",8,"CCK_913","1_ConA"
"Con","A",1,"C",9,"KKC_944","1_ConA"
"Con","A",1,"C",10,"maf2FRI","1_ConA"
"Con","A",1,"D",1,"gi-6","1_ConA"
"Con","A",1,"D",2,"KKK_885","1_ConA"
"Con","A",1,"D",3,"vin3-4 FRI","1_ConA"
"Con","A",1,"D",4,"CKC_978","1_ConA"
"Con","A",1,"D",5,"Sf-2","1_ConA"
"Con","A",1,"D",6,"Col","1_ConA"
"Con","A",1,"D",7,"hua2-3 FRI","1_ConA"
"Con","A",1,"D",8,"KCC_894","1_ConA"
"Con","A",1,"D",9,"Kas-1","1_ConA"
"Con","A",1,"D",10,"ColFRI","1_ConA"
"Con","A",1,"E",1,"CCC_903","1_ConA"
"Con","A",1,"E",2,"KKC_944","1_ConA"
"Con","A",1,"E",3,"gi-6","1_ConA"
"Con","A",1,"E",4,"KCC_894","1_ConA"
"Con","A",1,"E",5,"frl1-3 FRI","1_ConA"
"Con","A",1,"E",6,"pif4-101","1_ConA"
"Con","A",1,"E",7,"Col","1_ConA"
"Con","A",1,"E",8,"CCK_913","1_ConA"
"Con","A",1,"E",9,"flm","1_ConA"
"Con","A",1,"E",10,"Ler","1_ConA"
"Con","A",2,"A",1,"KKK_885","2_ConA"
"Con","A",2,"A",2,"CCK_913","2_ConA"
"Con","A",2,"A",3,"CKK_986","2_ConA"
"Con","A",2,"A",4,"phyB-1","2_ConA"
"Con","A",2,"A",5,"KKC_944","2_ConA"
"Con","A",2,"A",6,"KCC_894","2_ConA"
"Con","A",2,"A",7,"CKC_978","2_ConA"
"Con","A",2,"A",8,"Ts-5","2_ConA"
"Con","A",2,"A",9,"maf2","2_ConA"
"Con","A",2,"A",10,"Sf-2","2_ConA"
"Con","A",2,"B",1,"KCK_872","2_ConA"
"Con","A",2,"B",2,"Kas-1","2_ConA"
"Con","A",2,"B",3,"hua2-3 FRI","2_ConA"
"Con","A",2,"B",4,"maf2FRI","2_ConA"
"Con","A",2,"B",5,"pif4-101","2_ConA"
"Con","A",2,"B",6,"frl1-3 FRI","2_ConA"
"Con","A",2,"B",7,"hua2-3 FRI","2_ConA"
"Con","A",2,"B",8,"flm","2_ConA"
"Con","A",2,"B",9,"KKC_944","2_ConA"
"Con","A",2,"B",10,"Ts-5","2_ConA"
"Con","A",2,"C",1,"flmFRI","2_ConA"
"Con","A",2,"C",2,"frl1-3 FRI","2_ConA"
"Con","A",2,"C",3,"maf3","2_ConA"
"Con","A",2,"C",4,"vin3-4 FRI","2_ConA"
"Con","A",2,"C",5,"CCC_903","2_ConA"
"Con","A",2,"C",6,"Sf-2","2_ConA"
"Con","A",2,"C",7,"phyB-1","2_ConA"
"Con","A",2,"C",8,"flmFRI","2_ConA"
"Con","A",2,"C",9,"gi-6","2_ConA"
"Con","A",2,"C",10,"Col","2_ConA"
"Con","A",2,"D",1,"Col","2_ConA"
"Con","A",2,"D",2,"flm","2_ConA"
"Con","A",2,"D",3,"Ler","2_ConA"
"Con","A",2,"D",4,"CCK_913","2_ConA"
"Con","A",2,"D",5,"CKC_978","2_ConA"
"Con","A",2,"D",6,"CKK_986","2_ConA"
"Con","A",2,"D",7,"pif4-101","2_ConA"
"Con","A",2,"D",8,"maf2","2_ConA"
"Con","A",2,"D",9,"KCK_872","2_ConA"
"Con","A",2,"D",10,"Kas-1","2_ConA"
"Con","A",2,"E",1,"KKK_885","2_ConA"
"Con","A",2,"E",2,"vin3-4 FRI","2_ConA"
"Con","A",2,"E",3,"gi-6","2_ConA"
"Con","A",2,"E",4,"maf2FRI","2_ConA"
"Con","A",2,"E",5,"Ler","2_ConA"
"Con","A",2,"E",6,"ColFRI","2_ConA"
"Con","A",2,"E",7,"KCC_894","2_ConA"
"Con","A",2,"E",8,"maf3","2_ConA"
"Con","A",2,"E",9,"CCC_903","2_ConA"
"Con","A",2,"E",10,"ColFRI","2_ConA"
"Con","A",3,"A",1,"CKK_986","3_ConA"
"Con","A",3,"A",2,"hua2-3 FRI","3_ConA"
"Con","A",3,"A",3,"CKC_978","3_ConA"
"Con","A",3,"A",4,"Sf-2","3_ConA"
"Con","A",3,"A",5,"KKK_885","3_ConA"
"Con","A",3,"A",6,"Kas-1","3_ConA"
"Con","A",3,"A",7,"pif4-101","3_ConA"
"Con","A",3,"A",8,"KKC_944","3_ConA"
"Con","A",3,"A",9,"vin3-4 FRI","3_ConA"
"Con","A",3,"A",10,"flmFRI","3_ConA"
"Con","A",3,"B",1,"flm","3_ConA"
"Con","A",3,"B",2,"Kas-1","3_ConA"
"Con","A",3,"B",3,"flmFRI","3_ConA"
"Con","A",3,"B",4,"CCK_913","3_ConA"
"Con","A",3,"B",5,"CCC_903","3_ConA"
"Con","A",3,"B",6,"maf3","3_ConA"
"Con","A",3,"B",7,"Ler","3_ConA"
"Con","A",3,"B",8,"Ts-5","3_ConA"
"Con","A",3,"B",9,"KCC_894","3_ConA"
"Con","A",3,"B",10,"pif4-101","3_ConA"
"Con","A",3,"C",1,"phyB-1","3_ConA"
"Con","A",3,"C",2,"Col","3_ConA"
"Con","A",3,"C",3,"maf2FRI","3_ConA"
"Con","A",3,"C",4,"flm","3_ConA"
"Con","A",3,"C",5,"gi-6","3_ConA"
"Con","A",3,"C",6,"CKC_978","3_ConA"
"Con","A",3,"C",7,"KKC_944","3_ConA"
"Con","A",3,"C",8,"KCC_894","3_ConA"
"Con","A",3,"C",9,"frl1-3 FRI","3_ConA"
"Con","A",3,"C",10,"phyB-1","3_ConA"
"Con","A",3,"D",1,"maf2","3_ConA"
"Con","A",3,"D",2,"Ler","3_ConA"
"Con","A",3,"D",3,"Sf-2","3_ConA"
"Con","A",3,"D",4,"vin3-4 FRI","3_ConA"
"Con","A",3,"D",5,"CKK_986","3_ConA"
"Con","A",3,"D",6,"maf3","3_ConA"
"Con","A",3,"D",7,"CCC_903","3_ConA"
"Con","A",3,"D",8,"gi-6","3_ConA"
"Con","A",3,"D",9,"KCK_872","3_ConA"
"Con","A",3,"D",10,"ColFRI","3_ConA"
"Con","A",3,"E",1,"maf2FRI","3_ConA"
"Con","A",3,"E",2,"hua2-3 FRI","3_ConA"
"Con","A",3,"E",3,"KCK_872","3_ConA"
"Con","A",3,"E",4,"KKK_885","3_ConA"
"Con","A",3,"E",5,"Ts-5","3_ConA"
"Con","A",3,"E",6,"Col","3_ConA"
"Con","A",3,"E",7,"maf2","3_ConA"
"Con","A",3,"E",8,"CCK_913","3_ConA"
"Con","A",3,"E",9,"ColFRI","3_ConA"
"Con","A",3,"E",10,"frl1-3 FRI","3_ConA"
"Con","B",4,"A",1,"ColFRI","4_ConB"
"Con","B",4,"A",2,"frl1-3 FRI","4_ConB"
"Con","B",4,"A",3,"Ts-5","4_ConB"
"Con","B",4,"A",4,"phyB-1","4_ConB"
"Con","B",4,"A",5,"maf2FRI","4_ConB"
"Con","B",4,"A",6,"Kas-1","4_ConB"
"Con","B",4,"A",7,"CCC_903","4_ConB"
"Con","B",4,"A",8,"Col","4_ConB"
"Con","B",4,"A",9,"flmFRI","4_ConB"
"Con","B",4,"A",10,"KKC_944","4_ConB"
"Con","B",4,"B",1,"Sf-2","4_ConB"
"Con","B",4,"B",2,"phyB-1","4_ConB"
"Con","B",4,"B",3,"KKK_885","4_ConB"
"Con","B",4,"B",4,"KCK_872","4_ConB"
"Con","B",4,"B",5,"Ler","4_ConB"
"Con","B",4,"B",6,"pif4-101","4_ConB"
"Con","B",4,"B",7,"vin3-4 FRI","4_ConB"
"Con","B",4,"B",8,"CCK_913","4_ConB"
"Con","B",4,"B",9,"maf3","4_ConB"
"Con","B",4,"B",10,"Ts-5","4_ConB"
"Con","B",4,"C",1,"Col","4_ConB"
"Con","B",4,"C",2,"KCC_894","4_ConB"
"Con","B",4,"C",3,"flm","4_ConB"
"Con","B",4,"C",4,"maf2","4_ConB"
"Con","B",4,"C",5,"CKK_986","4_ConB"
"Con","B",4,"C",6,"KKC_944","4_ConB"
"Con","B",4,"C",7,"flmFRI","4_ConB"
"Con","B",4,"C",8,"CCC_903","4_ConB"
"Con","B",4,"C",9,"KCC_894","4_ConB"
"Con","B",4,"C",10,"CKK_986","4_ConB"
"Con","B",4,"D",1,"gi-6","4_ConB"
"Con","B",4,"D",2,"frl1-3 FRI","4_ConB"
"Con","B",4,"D",3,"maf3","4_ConB"
"Con","B",4,"D",4,"hua2-3 FRI","4_ConB"
"Con","B",4,"D",5,"KCK_872","4_ConB"
"Con","B",4,"D",6,"Kas-1","4_ConB"
"Con","B",4,"D",7,"maf2","4_ConB"
"Con","B",4,"D",8,"hua2-3 FRI","4_ConB"
"Con","B",4,"D",9,"vin3-4 FRI","4_ConB"
"Con","B",4,"D",10,"CKC_978","4_ConB"
"Con","B",4,"E",1,"pif4-101","4_ConB"
"Con","B",4,"E",2,"KKK_885","4_ConB"
"Con","B",4,"E",3,"maf2FRI","4_ConB"
"Con","B",4,"E",4,"flm","4_ConB"
"Con","B",4,"E",5,"gi-6","4_ConB"
"Con","B",4,"E",6,"CKC_978","4_ConB"
"Con","B",4,"E",7,"ColFRI","4_ConB"
"Con","B",4,"E",8,"CCK_913","4_ConB"
"Con","B",4,"E",9,"Ler","4_ConB"
"Con","B",4,"E",10,"Sf-2","4_ConB"
"Con","B",5,"A",1,"vin3-4 FRI","5_ConB"
"Con","B",5,"A",2,"CKK_986","5_ConB"
"Con","B",5,"A",3,"CCK_913","5_ConB"
"Con","B",5,"A",4,"maf2FRI","5_ConB"
"Con","B",5,"A",5,"maf2FRI","5_ConB"
"Con","B",5,"A",6,"Kas-1","5_ConB"
"Con","B",5,"A",7,"CCC_903","5_ConB"
"Con","B",5,"A",8,"gi-6","5_ConB"
"Con","B",5,"A",9,"CKC_978","5_ConB"
"Con","B",5,"A",10,"vin3-4 FRI","5_ConB"
"Con","B",5,"B",1,"Ts-5","5_ConB"
"Con","B",5,"B",2,"KCC_894","5_ConB"
"Con","B",5,"B",3,"CCC_903","5_ConB"
"Con","B",5,"B",4,"hua2-3 FRI","5_ConB"
"Con","B",5,"B",5,"pif4-101","5_ConB"
"Con","B",5,"B",6,"gi-6","5_ConB"
"Con","B",5,"B",7,"maf3","5_ConB"
"Con","B",5,"B",8,"ColFRI","5_ConB"
"Con","B",5,"B",9,"phyB-1","5_ConB"
"Con","B",5,"B",10,"KKC_944","5_ConB"
"Con","B",5,"C",1,"KCK_872","5_ConB"
"Con","B",5,"C",2,"CKK_986","5_ConB"
"Con","B",5,"C",3,"KKK_885","5_ConB"
"Con","B",5,"C",4,"Col","5_ConB"
"Con","B",5,"C",5,"Ts-5","5_ConB"
"Con","B",5,"C",6,"Ler","5_ConB"
"Con","B",5,"C",7,"Ler","5_ConB"
"Con","B",5,"C",8,"Col","5_ConB"
"Con","B",5,"C",9,"maf2","5_ConB"
"Con","B",5,"C",10,"Sf-2","5_ConB"
"Con","B",5,"D",1,"Sf-2","5_ConB"
"Con","B",5,"D",2,"frl1-3 FRI","5_ConB"
"Con","B",5,"D",3,"pif4-101","5_ConB"
"Con","B",5,"D",4,"KCC_894","5_ConB"
"Con","B",5,"D",5,"KCK_872","5_ConB"
"Con","B",5,"D",6,"flm","5_ConB"
"Con","B",5,"D",7,"frl1-3 FRI","5_ConB"
"Con","B",5,"D",8,"flm","5_ConB"
"Con","B",5,"D",9,"flmFRI","5_ConB"
"Con","B",5,"D",10,"maf3","5_ConB"
"Con","B",5,"E",1,"maf2","5_ConB"
"Con","B",5,"E",2,"CCK_913","5_ConB"
"Con","B",5,"E",3,"KKC_944","5_ConB"
"Con","B",5,"E",4,"Kas-1","5_ConB"
"Con","B",5,"E",5,"KKK_885","5_ConB"
"Con","B",5,"E",6,"CKC_978","5_ConB"
"Con","B",5,"E",7,"hua2-3 FRI","5_ConB"
"Con","B",5,"E",8,"flmFRI","5_ConB"
"Con","B",5,"E",9,"phyB-1","5_ConB"
"Con","B",5,"E",10,"ColFRI","5_ConB"
"Con","B",6,"A",1,"maf2","6_ConB"
"Con","B",6,"A",2,"maf3","6_ConB"
"Con","B",6,"A",3,"gi-6","6_ConB"
"Con","B",6,"A",4,"flmFRI","6_ConB"
"Con","B",6,"A",5,"CKK_986","6_ConB"
"Con","B",6,"A",6,"Col","6_ConB"
"Con","B",6,"A",7,"Ler","6_ConB"
"Con","B",6,"A",8,"KKC_944","6_ConB"
"Con","B",6,"A",9,"hua2-3 FRI","6_ConB"
"Con","B",6,"A",10,"flmFRI","6_ConB"
"Con","B",6,"B",1,"CCC_903","6_ConB"
"Con","B",6,"B",2,"phyB-1","6_ConB"
"Con","B",6,"B",3,"Ler","6_ConB"
"Con","B",6,"B",4,"Kas-1","6_ConB"
"Con","B",6,"B",5,"gi-6","6_ConB"
"Con","B",6,"B",6,"KCK_872","6_ConB"
"Con","B",6,"B",7,"flm","6_ConB"
"Con","B",6,"B",8,"Ts-5","6_ConB"
"Con","B",6,"B",9,"vin3-4 FRI","6_ConB"
"Con","B",6,"B",10,"KCC_894","6_ConB"
"Con","B",6,"C",1,"frl1-3 FRI","6_ConB"
"Con","B",6,"C",2,"CCK_913","6_ConB"
"Con","B",6,"C",3,"pif4-101","6_ConB"
"Con","B",6,"C",4,"maf2","6_ConB"
"Con","B",6,"C",5,"maf2FRI","6_ConB"
"Con","B",6,"C",6,"phyB-1","6_ConB"
"Con","B",6,"C",7,"frl1-3 FRI","6_ConB"
"Con","B",6,"C",8,"CKK_986","6_ConB"
"Con","B",6,"C",9,"flm","6_ConB"
"Con","B",6,"C",10,"KCC_894","6_ConB"
"Con","B",6,"D",1,"KKK_885","6_ConB"
"Con","B",6,"D",2,"ColFRI","6_ConB"
"Con","B",6,"D",3,"CCK_913","6_ConB"
"Con","B",6,"D",4,"maf3","6_ConB"
"Con","B",6,"D",5,"KCK_872","6_ConB"
"Con","B",6,"D",6,"CCC_903","6_ConB"
"Con","B",6,"D",7,"KKK_885","6_ConB"
"Con","B",6,"D",8,"hua2-3 FRI","6_ConB"
"Con","B",6,"D",9,"CKC_978","6_ConB"
"Con","B",6,"D",10,"Col","6_ConB"
"Con","B",6,"E",1,"maf2FRI","6_ConB"
"Con","B",6,"E",2,"KKC_944","6_ConB"
"Con","B",6,"E",3,"vin3-4 FRI","6_ConB"
"Con","B",6,"E",4,"Sf-2","6_ConB"
"Con","B",6,"E",5,"Ts-5","6_ConB"
"Con","B",6,"E",6,"Kas-1","6_ConB"
"Con","B",6,"E",7,"pif4-101","6_ConB"
"Con","B",6,"E",8,"Sf-2","6_ConB"
"Con","B",6,"E",9,"ColFRI","6_ConB"
"Con","B",6,"E",10,"CKC_978","6_ConB"
"Var","A",7,"A",1,"hua2-3 FRI","7_VarA"
"Var","A",7,"A",2,"maf3","7_VarA"
"Var","A",7,"A",3,"Col","7_VarA"
"Var","A",7,"A",4,"Kas-1","7_VarA"
"Var","A",7,"A",5,"KCK_872","7_VarA"
"Var","A",7,"A",6,"flm","7_VarA"
"Var","A",7,"A",7,"CCK_913","7_VarA"
"Var","A",7,"A",8,"Ts-5","7_VarA"
"Var","A",7,"A",9,"KCC_894","7_VarA"
"Var","A",7,"A",10,"CKK_986","7_VarA"
"Var","A",7,"B",1,"KKC_944","7_VarA"
"Var","A",7,"B",2,"maf2","7_VarA"
"Var","A",7,"B",3,"KCC_894","7_VarA"
"Var","A",7,"B",4,"flmFRI","7_VarA"
"Var","A",7,"B",5,"Sf-2","7_VarA"
"Var","A",7,"B",6,"hua2-3 FRI","7_VarA"
"Var","A",7,"B",7,"phyB-1","7_VarA"
"Var","A",7,"B",8,"maf2","7_VarA"
"Var","A",7,"B",9,"Ler","7_VarA"
"Var","A",7,"B",10,"frl1-3 FRI","7_VarA"
"Var","A",7,"C",1,"KKK_885","7_VarA"
"Var","A",7,"C",2,"ColFRI","7_VarA"
"Var","A",7,"C",3,"pif4-101","7_VarA"
"Var","A",7,"C",4,"Kas-1","7_VarA"
"Var","A",7,"C",5,"maf2FRI","7_VarA"
"Var","A",7,"C",6,"frl1-3 FRI","7_VarA"
"Var","A",7,"C",7,"CCC_903","7_VarA"
"Var","A",7,"C",8,"KKK_885","7_VarA"
"Var","A",7,"C",9,"CKC_978","7_VarA"
"Var","A",7,"C",10,"Col","7_VarA"
"Var","A",7,"D",1,"Ts-5","7_VarA"
"Var","A",7,"D",2,"pif4-101","7_VarA"
"Var","A",7,"D",3,"CCK_913","7_VarA"
"Var","A",7,"D",4,"flmFRI","7_VarA"
"Var","A",7,"D",5,"Sf-2","7_VarA"
"Var","A",7,"D",6,"KCK_872","7_VarA"
"Var","A",7,"D",7,"Ler","7_VarA"
"Var","A",7,"D",8,"flm","7_VarA"
"Var","A",7,"D",9,"ColFRI","7_VarA"
"Var","A",7,"D",10,"gi-6","7_VarA"
"Var","A",7,"E",1,"vin3-4 FRI","7_VarA"
"Var","A",7,"E",2,"maf3","7_VarA"
"Var","A",7,"E",3,"phyB-1","7_VarA"
"Var","A",7,"E",4,"gi-6","7_VarA"
"Var","A",7,"E",5,"maf2FRI","7_VarA"
"Var","A",7,"E",6,"vin3-4 FRI","7_VarA"
"Var","A",7,"E",7,"CKC_978","7_VarA"
"Var","A",7,"E",8,"CCC_903","7_VarA"
"Var","A",7,"E",9,"KKC_944","7_VarA"
"Var","A",7,"E",10,"CKK_986","7_VarA"
"Var","A",8,"A",1,"maf2","8_VarA"
"Var","A",8,"A",2,"ColFRI","8_VarA"
"Var","A",8,"A",3,"phyB-1","8_VarA"
"Var","A",8,"A",4,"Col","8_VarA"
"Var","A",8,"A",5,"maf2","8_VarA"
"Var","A",8,"A",6,"flmFRI","8_VarA"
"Var","A",8,"A",7,"CCC_903","8_VarA"
"Var","A",8,"A",8,"KCC_894","8_VarA"
"Var","A",8,"A",9,"Sf-2","8_VarA"
"Var","A",8,"A",10,"Col","8_VarA"
"Var","A",8,"B",1,"Ts-5","8_VarA"
"Var","A",8,"B",2,"pif4-101","8_VarA"
"Var","A",8,"B",3,"frl1-3 FRI","8_VarA"
"Var","A",8,"B",4,"flm","8_VarA"
"Var","A",8,"B",5,"maf3","8_VarA"
"Var","A",8,"B",6,"Ler","8_VarA"
"Var","A",8,"B",7,"KKC_944","8_VarA"
"Var","A",8,"B",8,"maf3","8_VarA"
"Var","A",8,"B",9,"CCK_913","8_VarA"
"Var","A",8,"B",10,"KKC_944","8_VarA"
"Var","A",8,"C",1,"Ler","8_VarA"
"Var","A",8,"C",2,"maf2FRI","8_VarA"
"Var","A",8,"C",3,"CKK_986","8_VarA"
"Var","A",8,"C",4,"flmFRI","8_VarA"
"Var","A",8,"C",5,"KCK_872","8_VarA"
"Var","A",8,"C",6,"phyB-1","8_VarA"
"Var","A",8,"C",7,"flm","8_VarA"
"Var","A",8,"C",8,"KCK_872","8_VarA"
"Var","A",8,"C",9,"CKC_978","8_VarA"
"Var","A",8,"C",10,"frl1-3 FRI","8_VarA"
"Var","A",8,"D",1,"hua2-3 FRI","8_VarA"
"Var","A",8,"D",2,"Ts-5","8_VarA"
"Var","A",8,"D",3,"gi-6","8_VarA"
"Var","A",8,"D",4,"KKK_885","8_VarA"
"Var","A",8,"D",5,"KCC_894","8_VarA"
"Var","A",8,"D",6,"vin3-4 FRI","8_VarA"
"Var","A",8,"D",7,"KKK_885","8_VarA"
"Var","A",8,"D",8,"CKK_986","8_VarA"
"Var","A",8,"D",9,"CCC_903","8_VarA"
"Var","A",8,"D",10,"Kas-1","8_VarA"
"Var","A",8,"E",1,"CCK_913","8_VarA"
"Var","A",8,"E",2,"Kas-1","8_VarA"
"Var","A",8,"E",3,"maf2FRI","8_VarA"
"Var","A",8,"E",4,"vin3-4 FRI","8_VarA"
"Var","A",8,"E",5,"gi-6","8_VarA"
"Var","A",8,"E",6,"ColFRI","8_VarA"
"Var","A",8,"E",7,"hua2-3 FRI","8_VarA"
"Var","A",8,"E",8,"pif4-101","8_VarA"
"Var","A",8,"E",9,"Sf-2","8_VarA"
"Var","A",8,"E",10,"CKC_978","8_VarA"
"Var","A",9,"A",1,"maf2FRI","9_VarA"
"Var","A",9,"A",2,"Ts-5","9_VarA"
"Var","A",9,"A",3,"CKK_986","9_VarA"
"Var","A",9,"A",4,"ColFRI","9_VarA"
"Var","A",9,"A",5,"CKC_978","9_VarA"
"Var","A",9,"A",6,"KCK_872","9_VarA"
"Var","A",9,"A",7,"Ler","9_VarA"
"Var","A",9,"A",8,"CKK_986","9_VarA"
"Var","A",9,"A",9,"CCK_913","9_VarA"
"Var","A",9,"A",10,"KKK_885","9_VarA"
"Var","A",9,"B",1,"KCK_872","9_VarA"
"Var","A",9,"B",2,"Sf-2","9_VarA"
"Var","A",9,"B",3,"phyB-1","9_VarA"
"Var","A",9,"B",4,"CCK_913","9_VarA"
"Var","A",9,"B",5,"vin3-4 FRI","9_VarA"
"Var","A",9,"B",6,"hua2-3 FRI","9_VarA"
"Var","A",9,"B",7,"maf3","9_VarA"
"Var","A",9,"B",8,"flm","9_VarA"
"Var","A",9,"B",9,"maf2","9_VarA"
"Var","A",9,"B",10,"frl1-3 FRI","9_VarA"
"Var","A",9,"C",1,"Col","9_VarA"
"Var","A",9,"C",2,"Sf-2","9_VarA"
"Var","A",9,"C",3,"ColFRI","9_VarA"
"Var","A",9,"C",4,"KKK_885","9_VarA"
"Var","A",9,"C",5,"KCC_894","9_VarA"
"Var","A",9,"C",6,"maf2","9_VarA"
"Var","A",9,"C",7,"Ler","9_VarA"
"Var","A",9,"C",8,"CCC_903","9_VarA"
"Var","A",9,"C",9,"Kas-1","9_VarA"
"Var","A",9,"C",10,"KKC_944","9_VarA"
"Var","A",9,"D",1,"vin3-4 FRI","9_VarA"
"Var","A",9,"D",2,"frl1-3 FRI","9_VarA"
"Var","A",9,"D",3,"CKC_978","9_VarA"
"Var","A",9,"D",4,"KCC_894","9_VarA"
"Var","A",9,"D",5,"Kas-1","9_VarA"
"Var","A",9,"D",6,"flmFRI","9_VarA"
"Var","A",9,"D",7,"maf3","9_VarA"
"Var","A",9,"D",8,"hua2-3 FRI","9_VarA"
"Var","A",9,"D",9,"maf2FRI","9_VarA"
"Var","A",9,"D",10,"flm","9_VarA"
"Var","A",9,"E",1,"phyB-1","9_VarA"
"Var","A",9,"E",2,"KKC_944","9_VarA"
"Var","A",9,"E",3,"Col","9_VarA"
"Var","A",9,"E",4,"gi-6","9_VarA"
"Var","A",9,"E",5,"CCC_903","9_VarA"
"Var","A",9,"E",6,"pif4-101","9_VarA"
"Var","A",9,"E",7,"flmFRI","9_VarA"
"Var","A",9,"E",8,"Ts-5","9_VarA"
"Var","A",9,"E",9,"pif4-101","9_VarA"
"Var","A",9,"E",10,"gi-6","9_VarA"
"Var","B",10,"A",1,"CCC_903","10_VarB"
"Var","B",10,"A",2,"flmFRI","10_VarB"
"Var","B",10,"A",3,"KCK_872","10_VarB"
"Var","B",10,"A",4,"vin3-4 FRI","10_VarB"
"Var","B",10,"A",5,"vin3-4 FRI","10_VarB"
"Var","B",10,"A",6,"Col","10_VarB"
"Var","B",10,"A",7,"maf2FRI","10_VarB"
"Var","B",10,"A",8,"CCC_903","10_VarB"
"Var","B",10,"A",9,"Kas-1","10_VarB"
"Var","B",10,"A",10,"KKK_885","10_VarB"
"Var","B",10,"B",1,"flmFRI","10_VarB"
"Var","B",10,"B",2,"maf2","10_VarB"
"Var","B",10,"B",3,"maf2","10_VarB"
"Var","B",10,"B",4,"CKC_978","10_VarB"
"Var","B",10,"B",5,"maf2FRI","10_VarB"
"Var","B",10,"B",6,"flm","10_VarB"
"Var","B",10,"B",7,"phyB-1","10_VarB"
"Var","B",10,"B",8,"CKK_986","10_VarB"
"Var","B",10,"B",9,"Ler","10_VarB"
"Var","B",10,"B",10,"CCK_913","10_VarB"
"Var","B",10,"C",1,"KKC_944","10_VarB"
"Var","B",10,"C",2,"KKK_885","10_VarB"
"Var","B",10,"C",3,"Sf-2","10_VarB"
"Var","B",10,"C",4,"CKC_978","10_VarB"
"Var","B",10,"C",5,"hua2-3 FRI","10_VarB"
"Var","B",10,"C",6,"flm","10_VarB"
"Var","B",10,"C",7,"KCK_872","10_VarB"
"Var","B",10,"C",8,"phyB-1","10_VarB"
"Var","B",10,"C",9,"frl1-3 FRI","10_VarB"
"Var","B",10,"C",10,"Col","10_VarB"
"Var","B",10,"D",1,"Ler","10_VarB"
"Var","B",10,"D",2,"KCC_894","10_VarB"
"Var","B",10,"D",3,"maf3","10_VarB"
"Var","B",10,"D",4,"KKC_944","10_VarB"
"Var","B",10,"D",5,"pif4-101","10_VarB"
"Var","B",10,"D",6,"Ts-5","10_VarB"
"Var","B",10,"D",7,"gi-6","10_VarB"
"Var","B",10,"D",8,"CCK_913","10_VarB"
"Var","B",10,"D",9,"KCC_894","10_VarB"
"Var","B",10,"D",10,"ColFRI","10_VarB"
"Var","B",10,"E",1,"maf3","10_VarB"
"Var","B",10,"E",2,"hua2-3 FRI","10_VarB"
"Var","B",10,"E",3,"ColFRI","10_VarB"
"Var","B",10,"E",4,"frl1-3 FRI","10_VarB"
"Var","B",10,"E",5,"pif4-101","10_VarB"
"Var","B",10,"E",6,"gi-6","10_VarB"
"Var","B",10,"E",7,"Ts-5","10_VarB"
"Var","B",10,"E",8,"Kas-1","10_VarB"
"Var","B",10,"E",9,"Sf-2","10_VarB"
"Var","B",10,"E",10,"CKK_986","10_VarB"
"Var","B",11,"A",1,"CCC_903","11_VarB"
"Var","B",11,"A",2,"phyB-1","11_VarB"
"Var","B",11,"A",3,"KCC_894","11_VarB"
"Var","B",11,"A",4,"vin3-4 FRI","11_VarB"
"Var","B",11,"A",5,"gi-6","11_VarB"
"Var","B",11,"A",6,"CKC_978","11_VarB"
"Var","B",11,"A",7,"KKK_885","11_VarB"
"Var","B",11,"A",8,"frl1-3 FRI","11_VarB"
"Var","B",11,"A",9,"CKC_978","11_VarB"
"Var","B",11,"A",10,"Ts-5","11_VarB"
"Var","B",11,"B",1,"flmFRI","11_VarB"
"Var","B",11,"B",2,"ColFRI","11_VarB"
"Var","B",11,"B",3,"CCK_913","11_VarB"
"Var","B",11,"B",4,"KCC_894","11_VarB"
"Var","B",11,"B",5,"maf3","11_VarB"
"Var","B",11,"B",6,"hua2-3 FRI","11_VarB"
"Var","B",11,"B",7,"Col","11_VarB"
"Var","B",11,"B",8,"CCC_903","11_VarB"
"Var","B",11,"B",9,"flmFRI","11_VarB"
"Var","B",11,"B",10,"maf2FRI","11_VarB"
"Var","B",11,"C",1,"phyB-1","11_VarB"
"Var","B",11,"C",2,"maf2","11_VarB"
"Var","B",11,"C",3,"pif4-101","11_VarB"
"Var","B",11,"C",4,"gi-6","11_VarB"
"Var","B",11,"C",5,"Kas-1","11_VarB"
"Var","B",11,"C",6,"CKK_986","11_VarB"
"Var","B",11,"C",7,"CKK_986","11_VarB"
"Var","B",11,"C",8,"Sf-2","11_VarB"
"Var","B",11,"C",9,"KKC_944","11_VarB"
"Var","B",11,"C",10,"KCK_872","11_VarB"
"Var","B",11,"D",1,"maf2FRI","11_VarB"
"Var","B",11,"D",2,"KKK_885","11_VarB"
"Var","B",11,"D",3,"vin3-4 FRI","11_VarB"
"Var","B",11,"D",4,"flm","11_VarB"
"Var","B",11,"D",5,"ColFRI","11_VarB"
"Var","B",11,"D",6,"Col","11_VarB"
"Var","B",11,"D",7,"maf3","11_VarB"
"Var","B",11,"D",8,"Kas-1","11_VarB"
"Var","B",11,"D",9,"CCK_913","11_VarB"
"Var","B",11,"D",10,"Ler","11_VarB"
"Var","B",11,"E",1,"KCK_872","11_VarB"
"Var","B",11,"E",2,"flm","11_VarB"
"Var","B",11,"E",3,"Ts-5","11_VarB"
"Var","B",11,"E",4,"frl1-3 FRI","11_VarB"
"Var","B",11,"E",5,"hua2-3 FRI","11_VarB"
"Var","B",11,"E",6,"pif4-101","11_VarB"
"Var","B",11,"E",7,"KKC_944","11_VarB"
"Var","B",11,"E",8,"Sf-2","11_VarB"
"Var","B",11,"E",9,"maf2","11_VarB"
"Var","B",11,"E",10,"Ler","11_VarB"
"Var","B",12,"A",1,"flm","12_VarB"
"Var","B",12,"A",2,"KCK_872","12_VarB"
"Var","B",12,"A",3,"maf2","12_VarB"
"Var","B",12,"A",4,"flm","12_VarB"
"Var","B",12,"A",5,"gi-6","12_VarB"
"Var","B",12,"A",6,"KKK_885","12_VarB"
"Var","B",12,"A",7,"KKK_885","12_VarB"
"Var","B",12,"A",8,"Ler","12_VarB"
"Var","B",12,"A",9,"flmFRI","12_VarB"
"Var","B",12,"A",10,"KKC_944","12_VarB"
"Var","B",12,"B",1,"KKC_944","12_VarB"
"Var","B",12,"B",2,"Kas-1","12_VarB"
"Var","B",12,"B",3,"KCK_872","12_VarB"
"Var","B",12,"B",4,"CKC_978","12_VarB"
"Var","B",12,"B",5,"maf2","12_VarB"
"Var","B",12,"B",6,"CKK_986","12_VarB"
"Var","B",12,"B",7,"vin3-4 FRI","12_VarB"
"Var","B",12,"B",8,"ColFRI","12_VarB"
"Var","B",12,"B",9,"gi-6","12_VarB"
"Var","B",12,"B",10,"hua2-3 FRI","12_VarB"
"Var","B",12,"C",1,"Col","12_VarB"
"Var","B",12,"C",2,"KCC_894","12_VarB"
"Var","B",12,"C",3,"flmFRI","12_VarB"
"Var","B",12,"C",4,"maf2FRI","12_VarB"
"Var","B",12,"C",5,"Ler","12_VarB"
"Var","B",12,"C",6,"KCC_894","12_VarB"
"Var","B",12,"C",7,"maf3","12_VarB"
"Var","B",12,"C",8,"Ts-5","12_VarB"
"Var","B",12,"C",9,"ColFRI","12_VarB"
"Var","B",12,"C",10,"frl1-3 FRI","12_VarB"
"Var","B",12,"D",1,"CKC_978","12_VarB"
"Var","B",12,"D",2,"Sf-2","12_VarB"
"Var","B",12,"D",3,"Kas-1","12_VarB"
"Var","B",12,"D",4,"Col","12_VarB"
"Var","B",12,"D",5,"maf2FRI","12_VarB"
"Var","B",12,"D",6,"maf3","12_VarB"
"Var","B",12,"D",7,"CCC_903","12_VarB"
"Var","B",12,"D",8,"phyB-1","12_VarB"
"Var","B",12,"D",9,"phyB-1","12_VarB"
"Var","B",12,"D",10,"pif4-101","12_VarB"
"Var","B",12,"E",1,"hua2-3 FRI","12_VarB"
"Var","B",12,"E",2,"CKK_986","12_VarB"
"Var","B",12,"E",3,"Ts-5","12_VarB"
"Var","B",12,"E",4,"Sf-2","12_VarB"
"Var","B",12,"E",5,"CCK_913","12_VarB"
"Var","B",12,"E",6,"CCC_903","12_VarB"
"Var","B",12,"E",7,"CCK_913","12_VarB"
"Var","B",12,"E",8,"frl1-3 FRI","12_VarB"
"Var","B",12,"E",9,"pif4-101","12_VarB"
"Var","B",12,"E",10,"vin3-4 FRI","12_VarB"
